*** Life<Cell> 14x2 ***

Generation = 0, Population = 6.
-0
-0
0-
--
--
--
--
00
--
--
0-
--
--
--

Generation = 53, Population = 1.
.-
-.
..
..
..
-.
.-
..
.-
..
..
..
-1
..

Generation = 106, Population = 1.
.-
-.
..
..
..
-.
.-
..
.-
..
..
..
1-
..

Generation = 159, Population = 1.
.-
-.
..
..
..
-.
.-
..
.-
..
..
..
-1
..

Generation = 212, Population = 1.
.-
-.
..
..
..
-.
.-
..
.-
..
..
..
1-
..

Generation = 265, Population = 1.
.-
-.
..
..
..
-.
.-
..
.-
..
..
..
-1
..

Generation = 318, Population = 1.
.-
-.
..
..
..
-.
.-
..
.-
..
..
..
1-
..

Generation = 371, Population = 1.
.-
-.
..
..
..
-.
.-
..
.-
..
..
..
-1
..

Generation = 424, Population = 1.
.-
-.
..
..
..
-.
.-
..
.-
..
..
..
1-
..

Generation = 477, Population = 1.
.-
-.
..
..
..
-.
.-
..
.-
..
..
..
-1
..

Generation = 530, Population = 1.
.-
-.
..
..
..
-.
.-
..
.-
..
..
..
1-
..

Generation = 583, Population = 1.
.-
-.
..
..
..
-.
.-
..
.-
..
..
..
-1
..

Generation = 636, Population = 1.
.-
-.
..
..
..
-.
.-
..
.-
..
..
..
1-
..

Generation = 689, Population = 1.
.-
-.
..
..
..
-.
.-
..
.-
..
..
..
-1
..

Generation = 742, Population = 1.
.-
-.
..
..
..
-.
.-
..
.-
..
..
..
1-
..

Generation = 795, Population = 1.
.-
-.
..
..
..
-.
.-
..
.-
..
..
..
-1
..

Generation = 848, Population = 1.
.-
-.
..
..
..
-.
.-
..
.-
..
..
..
1-
..

Generation = 901, Population = 1.
.-
-.
..
..
..
-.
.-
..
.-
..
..
..
-1
..

Generation = 954, Population = 1.
.-
-.
..
..
..
-.
.-
..
.-
..
..
..
1-
..

Generation = 1007, Population = 1.
.-
-.
..
..
..
-.
.-
..
.-
..
..
..
-1
..

Generation = 1060, Population = 1.
.-
-.
..
..
..
-.
.-
..
.-
..
..
..
1-
..

Generation = 1113, Population = 1.
.-
-.
..
..
..
-.
.-
..
.-
..
..
..
-1
..

*** Life<Cell> 15x11 ***

Generation = 0, Population = 4.
-----------
-----------
-----------
------0----
-----------
-0---------
-----------
-----------
-----------
-------0---
-----------
-----------
-----------
-----------
----0------

Generation = 153, Population = 4.
...-....-.-
...........
...........
...........
...........
...........
..........-
...........
**.........
**.........
.........-.
...........
...........
.......-...
...........

Generation = 306, Population = 4.
...-....-.-
...........
...........
...........
...........
...........
..........-
...........
**.........
**.........
.........-.
...........
...........
.......-...
...........

Generation = 459, Population = 4.
...-....-.-
...........
...........
...........
...........
...........
..........-
...........
**.........
**.........
.........-.
...........
...........
.......-...
...........

Generation = 612, Population = 4.
...-....-.-
...........
...........
...........
...........
...........
..........-
...........
**.........
**.........
.........-.
...........
...........
.......-...
...........

*** Life<Cell> 12x8 ***

Generation = 0, Population = 5.
----0---
---0----
--------
------0-
--------
--------
-------0
--------
------0-
--------
--------
--------

Generation = 198, Population = 6.
........
........
........
...**...
..*..*..
...**...
........
........
........
........
........
........

Generation = 396, Population = 6.
........
........
........
...**...
..*..*..
...**...
........
........
........
........
........
........

Generation = 594, Population = 6.
........
........
........
...**...
..*..*..
...**...
........
........
........
........
........
........

Generation = 792, Population = 6.
........
........
........
...**...
..*..*..
...**...
........
........
........
........
........
........

Generation = 990, Population = 6.
........
........
........
...**...
..*..*..
...**...
........
........
........
........
........
........

Generation = 1188, Population = 6.
........
........
........
...**...
..*..*..
...**...
........
........
........
........
........
........

Generation = 1386, Population = 6.
........
........
........
...**...
..*..*..
...**...
........
........
........
........
........
........

*** Life<Cell> 12x14 ***

Generation = 0, Population = 8.
0---------0---
--------------
------0-------
--------------
------------0-
--------------
---0----------
----0---------
--------------
0-------------
--------------
-----------0--

Generation = 147, Population = 7.
-.............
..............
..............
..............
...*..........
...*..........
...*..........
..............
..............
..............
..........**..
-......-..**..

Generation = 294, Population = 7.
-.............
..............
..............
..............
..............
..***.........
..............
..............
..............
..............
..........**..
-......-..**..

Generation = 441, Population = 7.
-.............
..............
..............
..............
...*..........
...*..........
...*..........
..............
..............
..............
..........**..
-......-..**..

Generation = 588, Population = 7.
-.............
..............
..............
..............
..............
..***.........
..............
..............
..............
..............
..........**..
-......-..**..

*** Life<Cell> 14x10 ***

Generation = 0, Population = 2.
----------
----------
----------
----0-----
----------
----------
----------
----------
----------
----------
----------
----------
0---------
----------

Generation = 44, Population = 20.
........-.
..........
..........
..........
.-........
.....-***.
......*..*
.....*...*
..........
....***..-
....*.***.
...**.....
....**...-
.....*.0..

Generation = 88, Population = 9.
........-.
..........
........*.
.......*.*
.-.....*.*
.....-..*.
..........
..........
..........
.........-
..........
....*.....
....*....-
....*..-..

Generation = 132, Population = 9.
........-.
..........
........*.
.......*.*
.-.....*.*
.....-..*.
..........
..........
..........
.........-
..........
....*.....
....*....-
....*..-..

Generation = 176, Population = 9.
........-.
..........
........*.
.......*.*
.-.....*.*
.....-..*.
..........
..........
..........
.........-
..........
....*.....
....*....-
....*..-..

Generation = 220, Population = 9.
........-.
..........
........*.
.......*.*
.-.....*.*
.....-..*.
..........
..........
..........
.........-
..........
....*.....
....*....-
....*..-..

Generation = 264, Population = 9.
........-.
..........
........*.
.......*.*
.-.....*.*
.....-..*.
..........
..........
..........
.........-
..........
....*.....
....*....-
....*..-..

Generation = 308, Population = 9.
........-.
..........
........*.
.......*.*
.-.....*.*
.....-..*.
..........
..........
..........
.........-
..........
....*.....
....*....-
....*..-..

Generation = 352, Population = 9.
........-.
..........
........*.
.......*.*
.-.....*.*
.....-..*.
..........
..........
..........
.........-
..........
....*.....
....*....-
....*..-..

Generation = 396, Population = 9.
........-.
..........
........*.
.......*.*
.-.....*.*
.....-..*.
..........
..........
..........
.........-
..........
....*.....
....*....-
....*..-..

Generation = 440, Population = 9.
........-.
..........
........*.
.......*.*
.-.....*.*
.....-..*.
..........
..........
..........
.........-
..........
....*.....
....*....-
....*..-..

Generation = 484, Population = 9.
........-.
..........
........*.
.......*.*
.-.....*.*
.....-..*.
..........
..........
..........
.........-
..........
....*.....
....*....-
....*..-..

Generation = 528, Population = 9.
........-.
..........
........*.
.......*.*
.-.....*.*
.....-..*.
..........
..........
..........
.........-
..........
....*.....
....*....-
....*..-..

Generation = 572, Population = 9.
........-.
..........
........*.
.......*.*
.-.....*.*
.....-..*.
..........
..........
..........
.........-
..........
....*.....
....*....-
....*..-..

Generation = 616, Population = 9.
........-.
..........
........*.
.......*.*
.-.....*.*
.....-..*.
..........
..........
..........
.........-
..........
....*.....
....*....-
....*..-..

Generation = 660, Population = 9.
........-.
..........
........*.
.......*.*
.-.....*.*
.....-..*.
..........
..........
..........
.........-
..........
....*.....
....*....-
....*..-..

*** Life<Cell> 12x18 ***

Generation = 0, Population = 10.
--0---------------
------------------
------------------
------------0-----
------------------
------------------
---000------------
---------0---0----
--------------0---
------------------
------------------
-----------0-----0

Generation = 75, Population = 14.
...-..............
..-...........***.
-.................
..................
.........**.......
...-.....**.......
..................
-.................
..................
-.........**......
-.-.......*..*....
...........***....

Generation = 150, Population = 14.
...-...........*..
..-............*..
-..............*..
..................
.........**.......
...-.....**.......
..................
-.................
..................
-.........**......
-.-.......*..*....
...........***....

Generation = 225, Population = 14.
...-..............
..-...........***.
-.................
..................
.........**.......
...-.....**.......
..................
-.................
..................
-.........**......
-.-.......*..*....
...........***....

Generation = 300, Population = 14.
...-...........*..
..-............*..
-..............*..
..................
.........**.......
...-.....**.......
..................
-.................
..................
-.........**......
-.-.......*..*....
...........***....

Generation = 375, Population = 14.
...-..............
..-...........***.
-.................
..................
.........**.......
...-.....**.......
..................
-.................
..................
-.........**......
-.-.......*..*....
...........***....

Generation = 450, Population = 14.
...-...........*..
..-............*..
-..............*..
..................
.........**.......
...-.....**.......
..................
-.................
..................
-.........**......
-.-.......*..*....
...........***....

Generation = 525, Population = 14.
...-..............
..-...........***.
-.................
..................
.........**.......
...-.....**.......
..................
-.................
..................
-.........**......
-.-.......*..*....
...........***....

Generation = 600, Population = 14.
...-...........*..
..-............*..
-..............*..
..................
.........**.......
...-.....**.......
..................
-.................
..................
-.........**......
-.-.......*..*....
...........***....

Generation = 675, Population = 14.
...-..............
..-...........***.
-.................
..................
.........**.......
...-.....**.......
..................
-.................
..................
-.........**......
-.-.......*..*....
...........***....

Generation = 750, Population = 14.
...-...........*..
..-............*..
-..............*..
..................
.........**.......
...-.....**.......
..................
-.................
..................
-.........**......
-.-.......*..*....
...........***....

Generation = 825, Population = 14.
...-..............
..-...........***.
-.................
..................
.........**.......
...-.....**.......
..................
-.................
..................
-.........**......
-.-.......*..*....
...........***....

Generation = 900, Population = 14.
...-...........*..
..-............*..
-..............*..
..................
.........**.......
...-.....**.......
..................
-.................
..................
-.........**......
-.-.......*..*....
...........***....

Generation = 975, Population = 14.
...-..............
..-...........***.
-.................
..................
.........**.......
...-.....**.......
..................
-.................
..................
-.........**......
-.-.......*..*....
...........***....

Generation = 1050, Population = 14.
...-...........*..
..-............*..
-..............*..
..................
.........**.......
...-.....**.......
..................
-.................
..................
-.........**......
-.-.......*..*....
...........***....

Generation = 1125, Population = 14.
...-..............
..-...........***.
-.................
..................
.........**.......
...-.....**.......
..................
-.................
..................
-.........**......
-.-.......*..*....
...........***....

Generation = 1200, Population = 14.
...-...........*..
..-............*..
-..............*..
..................
.........**.......
...-.....**.......
..................
-.................
..................
-.........**......
-.-.......*..*....
...........***....

*** Life<Cell> 5x17 ***

Generation = 0, Population = 3.
-----------------
-----------------
--------0--------
-0---------------
---------------0-

Generation = 92, Population = 4.
....-.....-......
...........**....
...........**....
.................
.............-...

Generation = 184, Population = 4.
....-.....-......
...........**....
...........**....
.................
.............-...

Generation = 276, Population = 4.
....-.....-......
...........**....
...........**....
.................
.............-...

Generation = 368, Population = 4.
....-.....-......
...........**....
...........**....
.................
.............-...

*** Life<Cell> 11x17 ***

Generation = 0, Population = 2.
-----------------
-----------------
-----------------
-----------------
-----------------
-----------------
----------0------
-----------------
-----------------
--------------0--
-----------------

*** Life<Cell> 7x12 ***

Generation = 0, Population = 4.
------------
------------
--0---------
--------0---
------------
------------
-----0-0----

Generation = 114, Population = 4.
...-....-.--
**.........-
**..........
...........-
............
...-........
..-.........

Generation = 228, Population = 4.
...-....-.--
**.........-
**..........
...........-
............
...-........
..-.........

Generation = 342, Population = 4.
...-....-.--
**.........-
**..........
...........-
............
...-........
..-.........

Generation = 456, Population = 4.
...-....-.--
**.........-
**..........
...........-
............
...-........
..-.........

Generation = 570, Population = 4.
...-....-.--
**.........-
**..........
...........-
............
...-........
..-.........

Generation = 684, Population = 4.
...-....-.--
**.........-
**..........
...........-
............
...-........
..-.........

Generation = 798, Population = 4.
...-....-.--
**.........-
**..........
...........-
............
...-........
..-.........

*** Life<Cell> 13x7 ***

Generation = 0, Population = 4.
-------
-------
--0----
0------
-------
-------
-------
-------
-0-----
--0----
-------
-------
-------

Generation = 97, Population = 11.
.....**
.....**
...-...
.......
....-..
.*.....
*.*....
*..*...
.**....
.......
.......
.......
-......

Generation = 194, Population = 11.
.....**
.....**
...-...
.......
....-..
.*.....
*.*....
*..*...
.**....
.......
.......
.......
-......

Generation = 291, Population = 11.
.....**
.....**
...-...
.......
....-..
.*.....
*.*....
*..*...
.**....
.......
.......
.......
-......

Generation = 388, Population = 11.
.....**
.....**
...-...
.......
....-..
.*.....
*.*....
*..*...
.**....
.......
.......
.......
-......

Generation = 485, Population = 11.
.....**
.....**
...-...
.......
....-..
.*.....
*.*....
*..*...
.**....
.......
.......
.......
-......

Generation = 582, Population = 11.
.....**
.....**
...-...
.......
....-..
.*.....
*.*....
*..*...
.**....
.......
.......
.......
-......

Generation = 679, Population = 11.
.....**
.....**
...-...
.......
....-..
.*.....
*.*....
*..*...
.**....
.......
.......
.......
-......

Generation = 776, Population = 11.
.....**
.....**
...-...
.......
....-..
.*.....
*.*....
*..*...
.**....
.......
.......
.......
-......

Generation = 873, Population = 11.
.....**
.....**
...-...
.......
....-..
.*.....
*.*....
*..*...
.**....
.......
.......
.......
-......

Generation = 970, Population = 11.
.....**
.....**
...-...
.......
....-..
.*.....
*.*....
*..*...
.**....
.......
.......
.......
-......

Generation = 1067, Population = 11.
.....**
.....**
...-...
.......
....-..
.*.....
*.*....
*..*...
.**....
.......
.......
.......
-......

Generation = 1164, Population = 11.
.....**
.....**
...-...
.......
....-..
.*.....
*.*....
*..*...
.**....
.......
.......
.......
-......

Generation = 1261, Population = 11.
.....**
.....**
...-...
.......
....-..
.*.....
*.*....
*..*...
.**....
.......
.......
.......
-......

Generation = 1358, Population = 11.
.....**
.....**
...-...
.......
....-..
.*.....
*.*....
*..*...
.**....
.......
.......
.......
-......

Generation = 1455, Population = 11.
.....**
.....**
...-...
.......
....-..
.*.....
*.*....
*..*...
.**....
.......
.......
.......
-......

Generation = 1552, Population = 11.
.....**
.....**
...-...
.......
....-..
.*.....
*.*....
*..*...
.**....
.......
.......
.......
-......

Generation = 1649, Population = 11.
.....**
.....**
...-...
.......
....-..
.*.....
*.*....
*..*...
.**....
.......
.......
.......
-......

Generation = 1746, Population = 11.
.....**
.....**
...-...
.......
....-..
.*.....
*.*....
*..*...
.**....
.......
.......
.......
-......

*** Life<Cell> 11x7 ***

Generation = 0, Population = 3.
-------
-------
-------
-------
-------
-------
-------
-----00
0------
-------
-------

Generation = 118, Population = 4.
.......
.-.....
.-.....
-......
.......
.......
.......
.....-.
.......
**.....
**.....

Generation = 236, Population = 4.
.......
.-.....
.-.....
-......
.......
.......
.......
.....-.
.......
**.....
**.....

Generation = 354, Population = 4.
.......
.-.....
.-.....
-......
.......
.......
.......
.....-.
.......
**.....
**.....

Generation = 472, Population = 4.
.......
.-.....
.-.....
-......
.......
.......
.......
.....-.
.......
**.....
**.....

*** Life<Cell> 13x10 ***

Generation = 0, Population = 9.
------0---
----------
---0------
-00-------
----------
----------
---0------
-------00-
----0-----
----------
---------0
----------
----------

Generation = 92, Population = 4.
....**...-
....**....
..........
..........
.......-.-
..........
..........
..........
..........
..........
..........
..........
..........

Generation = 184, Population = 4.
....**...-
....**....
..........
..........
.......-.-
..........
..........
..........
..........
..........
..........
..........
..........

Generation = 276, Population = 4.
....**...-
....**....
..........
..........
.......-.-
..........
..........
..........
..........
..........
..........
..........
..........

Generation = 368, Population = 4.
....**...-
....**....
..........
..........
.......-.-
..........
..........
..........
..........
..........
..........
..........
..........

Generation = 460, Population = 4.
....**...-
....**....
..........
..........
.......-.-
..........
..........
..........
..........
..........
..........
..........
..........

Generation = 552, Population = 4.
....**...-
....**....
..........
..........
.......-.-
..........
..........
..........
..........
..........
..........
..........
..........

Generation = 644, Population = 4.
....**...-
....**....
..........
..........
.......-.-
..........
..........
..........
..........
..........
..........
..........
..........

Generation = 736, Population = 4.
....**...-
....**....
..........
..........
.......-.-
..........
..........
..........
..........
..........
..........
..........
..........

Generation = 828, Population = 4.
....**...-
....**....
..........
..........
.......-.-
..........
..........
..........
..........
..........
..........
..........
..........

Generation = 920, Population = 4.
....**...-
....**....
..........
..........
.......-.-
..........
..........
..........
..........
..........
..........
..........
..........

Generation = 1012, Population = 4.
....**...-
....**....
..........
..........
.......-.-
..........
..........
..........
..........
..........
..........
..........
..........

Generation = 1104, Population = 4.
....**...-
....**....
..........
..........
.......-.-
..........
..........
..........
..........
..........
..........
..........
..........

Generation = 1196, Population = 4.
....**...-
....**....
..........
..........
.......-.-
..........
..........
..........
..........
..........
..........
..........
..........

Generation = 1288, Population = 4.
....**...-
....**....
..........
..........
.......-.-
..........
..........
..........
..........
..........
..........
..........
..........

Generation = 1380, Population = 4.
....**...-
....**....
..........
..........
.......-.-
..........
..........
..........
..........
..........
..........
..........
..........

Generation = 1472, Population = 4.
....**...-
....**....
..........
..........
.......-.-
..........
..........
..........
..........
..........
..........
..........
..........

Generation = 1564, Population = 4.
....**...-
....**....
..........
..........
.......-.-
..........
..........
..........
..........
..........
..........
..........
..........

Generation = 1656, Population = 4.
....**...-
....**....
..........
..........
.......-.-
..........
..........
..........
..........
..........
..........
..........
..........

*** Life<Cell> 1x9 ***

Generation = 0, Population = 3.
-----00-0

Generation = 53, Population = 0.
--...-...

Generation = 106, Population = 0.
--...-...

Generation = 159, Population = 0.
--...-...

Generation = 212, Population = 0.
--...-...

Generation = 265, Population = 0.
--...-...

Generation = 318, Population = 0.
--...-...

Generation = 371, Population = 0.
--...-...

Generation = 424, Population = 0.
--...-...

Generation = 477, Population = 0.
--...-...

Generation = 530, Population = 0.
--...-...

*** Life<Cell> 4x11 ***

Generation = 0, Population = 6.
--0--------
-0---------
---------00
-----0-0---

Generation = 2, Population = 15.
0-0-0----00
---0-0-0---
--0----11-*
-0-0-----1-

Generation = 4, Population = 10.
0-----0--**
-------*---
--0--11-.-.
---0-----1-

Generation = 6, Population = 15.
----01--1..
---0-11.111
---0-..-.*.
-0-0-1---1-

Generation = 8, Population = 14.
--0-*1--**.
----11..1*.
-1---..-...
------1-1*1

Generation = 10, Population = 24.
01--.-1-**.
--1*11**-**
--101*.-*.*
-----*10.**

Generation = 12, Population = 19.
-*-1*1*-***
10-.....1.*
--1-...*..*
--1-0.--**.

Generation = 14, Population = 17.
-.-*.-.0...
*--..**.*.*
11.-.***..*
-1*--.--**.

Generation = 16, Population = 21.
**-.*-*0...
.0-**....*.
11*-.***..*
-1**0.--.*.

Generation = 18, Population = 16.
.*1.*1.-...
*--...*.*..
.1.-....**.
0-.*-.****.

Generation = 20, Population = 19.
*.*...*1*..
*1-***.**..
*-*-***..*.
0-..-......

Generation = 22, Population = 21.
*.*******..
..1......*.
.-.******..
--.*****...

Generation = 24, Population = 15.
.*.******..
....***..*.
.-**....**.
--.........

Generation = 26, Population = 10.
........*..
..**...*.*.
.-..*...**.
-1..*......

Generation = 28, Population = 10.
........*..
..**...*.*.
.***....**.
--.........

Generation = 30, Population = 10.
........*..
.......*.*.
**.*....**.
1-*........

Generation = 32, Population = 11.
........*..
.*.....*.*.
*.*.....**.
***........

Generation = 34, Population = 8.
........*..
.*.....*.*.
*.*.....**.
...........

Generation = 36, Population = 5.
........*..
.......*.*.
........**.
...........

Generation = 38, Population = 5.
........*..
.......*.*.
........**.
...........

Generation = 40, Population = 5.
........*..
.......*.*.
........**.
...........

Generation = 42, Population = 5.
........*..
.......*.*.
........**.
...........

Generation = 44, Population = 5.
........*..
.......*.*.
........**.
...........

Generation = 46, Population = 5.
........*..
.......*.*.
........**.
...........

Generation = 48, Population = 5.
........*..
.......*.*.
........**.
...........

Generation = 50, Population = 5.
........*..
.......*.*.
........**.
...........

Generation = 52, Population = 5.
........*..
.......*.*.
........**.
...........

Generation = 54, Population = 5.
........*..
.......*.*.
........**.
...........

Generation = 56, Population = 5.
........*..
.......*.*.
........**.
...........

Generation = 58, Population = 5.
........*..
.......*.*.
........**.
...........

Generation = 60, Population = 5.
........*..
.......*.*.
........**.
...........

Generation = 62, Population = 5.
........*..
.......*.*.
........**.
...........

Generation = 64, Population = 5.
........*..
.......*.*.
........**.
...........

Generation = 66, Population = 5.
........*..
.......*.*.
........**.
...........

Generation = 68, Population = 5.
........*..
.......*.*.
........**.
...........

Generation = 70, Population = 5.
........*..
.......*.*.
........**.
...........

Generation = 72, Population = 5.
........*..
.......*.*.
........**.
...........

Generation = 74, Population = 5.
........*..
.......*.*.
........**.
...........

Generation = 76, Population = 5.
........*..
.......*.*.
........**.
...........

Generation = 78, Population = 5.
........*..
.......*.*.
........**.
...........

Generation = 80, Population = 5.
........*..
.......*.*.
........**.
...........

Generation = 82, Population = 5.
........*..
.......*.*.
........**.
...........

Generation = 84, Population = 5.
........*..
.......*.*.
........**.
...........

Generation = 86, Population = 5.
........*..
.......*.*.
........**.
...........

Generation = 88, Population = 5.
........*..
.......*.*.
........**.
...........

Generation = 90, Population = 5.
........*..
.......*.*.
........**.
...........

Generation = 92, Population = 5.
........*..
.......*.*.
........**.
...........

Generation = 94, Population = 5.
........*..
.......*.*.
........**.
...........

Generation = 96, Population = 5.
........*..
.......*.*.
........**.
...........

Generation = 98, Population = 5.
........*..
.......*.*.
........**.
...........

Generation = 100, Population = 5.
........*..
.......*.*.
........**.
...........

Generation = 102, Population = 5.
........*..
.......*.*.
........**.
...........

Generation = 104, Population = 5.
........*..
.......*.*.
........**.
...........

Generation = 106, Population = 5.
........*..
.......*.*.
........**.
...........

Generation = 108, Population = 5.
........*..
.......*.*.
........**.
...........

Generation = 110, Population = 5.
........*..
.......*.*.
........**.
...........

Generation = 112, Population = 5.
........*..
.......*.*.
........**.
...........

Generation = 114, Population = 5.
........*..
.......*.*.
........**.
...........

Generation = 116, Population = 5.
........*..
.......*.*.
........**.
...........

Generation = 118, Population = 5.
........*..
.......*.*.
........**.
...........

Generation = 120, Population = 5.
........*..
.......*.*.
........**.
...........

Generation = 122, Population = 5.
........*..
.......*.*.
........**.
...........

Generation = 124, Population = 5.
........*..
.......*.*.
........**.
...........

Generation = 126, Population = 5.
........*..
.......*.*.
........**.
...........

Generation = 128, Population = 5.
........*..
.......*.*.
........**.
...........

Generation = 130, Population = 5.
........*..
.......*.*.
........**.
...........

Generation = 132, Population = 5.
........*..
.......*.*.
........**.
...........

Generation = 134, Population = 5.
........*..
.......*.*.
........**.
...........

Generation = 136, Population = 5.
........*..
.......*.*.
........**.
...........

Generation = 138, Population = 5.
........*..
.......*.*.
........**.
...........

Generation = 140, Population = 5.
........*..
.......*.*.
........**.
...........

Generation = 142, Population = 5.
........*..
.......*.*.
........**.
...........

Generation = 144, Population = 5.
........*..
.......*.*.
........**.
...........

Generation = 146, Population = 5.
........*..
.......*.*.
........**.
...........

Generation = 148, Population = 5.
........*..
.......*.*.
........**.
...........

Generation = 150, Population = 5.
........*..
.......*.*.
........**.
...........

Generation = 152, Population = 5.
........*..
.......*.*.
........**.
...........

Generation = 154, Population = 5.
........*..
.......*.*.
........**.
...........

Generation = 156, Population = 5.
........*..
.......*.*.
........**.
...........

Generation = 158, Population = 5.
........*..
.......*.*.
........**.
...........

Generation = 160, Population = 5.
........*..
.......*.*.
........**.
...........

Generation = 162, Population = 5.
........*..
.......*.*.
........**.
...........

Generation = 164, Population = 5.
........*..
.......*.*.
........**.
...........

Generation = 166, Population = 5.
........*..
.......*.*.
........**.
...........

Generation = 168, Population = 5.
........*..
.......*.*.
........**.
...........

Generation = 170, Population = 5.
........*..
.......*.*.
........**.
...........

Generation = 172, Population = 5.
........*..
.......*.*.
........**.
...........

Generation = 174, Population = 5.
........*..
.......*.*.
........**.
...........

Generation = 176, Population = 5.
........*..
.......*.*.
........**.
...........

Generation = 178, Population = 5.
........*..
.......*.*.
........**.
...........

Generation = 180, Population = 5.
........*..
.......*.*.
........**.
...........

Generation = 182, Population = 5.
........*..
.......*.*.
........**.
...........

Generation = 184, Population = 5.
........*..
.......*.*.
........**.
...........

Generation = 186, Population = 5.
........*..
.......*.*.
........**.
...........

Generation = 188, Population = 5.
........*..
.......*.*.
........**.
...........

Generation = 190, Population = 5.
........*..
.......*.*.
........**.
...........

Generation = 192, Population = 5.
........*..
.......*.*.
........**.
...........

Generation = 194, Population = 5.
........*..
.......*.*.
........**.
...........

Generation = 196, Population = 5.
........*..
.......*.*.
........**.
...........

Generation = 198, Population = 5.
........*..
.......*.*.
........**.
...........

Generation = 200, Population = 5.
........*..
.......*.*.
........**.
...........

Generation = 202, Population = 5.
........*..
.......*.*.
........**.
...........

Generation = 204, Population = 5.
........*..
.......*.*.
........**.
...........

Generation = 206, Population = 5.
........*..
.......*.*.
........**.
...........

Generation = 208, Population = 5.
........*..
.......*.*.
........**.
...........

Generation = 210, Population = 5.
........*..
.......*.*.
........**.
...........

Generation = 212, Population = 5.
........*..
.......*.*.
........**.
...........

Generation = 214, Population = 5.
........*..
.......*.*.
........**.
...........

Generation = 216, Population = 5.
........*..
.......*.*.
........**.
...........

Generation = 218, Population = 5.
........*..
.......*.*.
........**.
...........

Generation = 220, Population = 5.
........*..
.......*.*.
........**.
...........

Generation = 222, Population = 5.
........*..
.......*.*.
........**.
...........

Generation = 224, Population = 5.
........*..
.......*.*.
........**.
...........

Generation = 226, Population = 5.
........*..
.......*.*.
........**.
...........

Generation = 228, Population = 5.
........*..
.......*.*.
........**.
...........

Generation = 230, Population = 5.
........*..
.......*.*.
........**.
...........

Generation = 232, Population = 5.
........*..
.......*.*.
........**.
...........

Generation = 234, Population = 5.
........*..
.......*.*.
........**.
...........

Generation = 236, Population = 5.
........*..
.......*.*.
........**.
...........

Generation = 238, Population = 5.
........*..
.......*.*.
........**.
...........

Generation = 240, Population = 5.
........*..
.......*.*.
........**.
...........

Generation = 242, Population = 5.
........*..
.......*.*.
........**.
...........

Generation = 244, Population = 5.
........*..
.......*.*.
........**.
...........

Generation = 246, Population = 5.
........*..
.......*.*.
........**.
...........

Generation = 248, Population = 5.
........*..
.......*.*.
........**.
...........

Generation = 250, Population = 5.
........*..
.......*.*.
........**.
...........

Generation = 252, Population = 5.
........*..
.......*.*.
........**.
...........

Generation = 254, Population = 5.
........*..
.......*.*.
........**.
...........

Generation = 256, Population = 5.
........*..
.......*.*.
........**.
...........

Generation = 258, Population = 5.
........*..
.......*.*.
........**.
...........

Generation = 260, Population = 5.
........*..
.......*.*.
........**.
...........

Generation = 262, Population = 5.
........*..
.......*.*.
........**.
...........

Generation = 264, Population = 5.
........*..
.......*.*.
........**.
...........

Generation = 266, Population = 5.
........*..
.......*.*.
........**.
...........

Generation = 268, Population = 5.
........*..
.......*.*.
........**.
...........

Generation = 270, Population = 5.
........*..
.......*.*.
........**.
...........

Generation = 272, Population = 5.
........*..
.......*.*.
........**.
...........

Generation = 274, Population = 5.
........*..
.......*.*.
........**.
...........

Generation = 276, Population = 5.
........*..
.......*.*.
........**.
...........

Generation = 278, Population = 5.
........*..
.......*.*.
........**.
...........

Generation = 280, Population = 5.
........*..
.......*.*.
........**.
...........

Generation = 282, Population = 5.
........*..
.......*.*.
........**.
...........

Generation = 284, Population = 5.
........*..
.......*.*.
........**.
...........

Generation = 286, Population = 5.
........*..
.......*.*.
........**.
...........

Generation = 288, Population = 5.
........*..
.......*.*.
........**.
...........

Generation = 290, Population = 5.
........*..
.......*.*.
........**.
...........

Generation = 292, Population = 5.
........*..
.......*.*.
........**.
...........

Generation = 294, Population = 5.
........*..
.......*.*.
........**.
...........

Generation = 296, Population = 5.
........*..
.......*.*.
........**.
...........

Generation = 298, Population = 5.
........*..
.......*.*.
........**.
...........

Generation = 300, Population = 5.
........*..
.......*.*.
........**.
...........

Generation = 302, Population = 5.
........*..
.......*.*.
........**.
...........

Generation = 304, Population = 5.
........*..
.......*.*.
........**.
...........

Generation = 306, Population = 5.
........*..
.......*.*.
........**.
...........

Generation = 308, Population = 5.
........*..
.......*.*.
........**.
...........

Generation = 310, Population = 5.
........*..
.......*.*.
........**.
...........

Generation = 312, Population = 5.
........*..
.......*.*.
........**.
...........

Generation = 314, Population = 5.
........*..
.......*.*.
........**.
...........

Generation = 316, Population = 5.
........*..
.......*.*.
........**.
...........

Generation = 318, Population = 5.
........*..
.......*.*.
........**.
...........

Generation = 320, Population = 5.
........*..
.......*.*.
........**.
...........

Generation = 322, Population = 5.
........*..
.......*.*.
........**.
...........

Generation = 324, Population = 5.
........*..
.......*.*.
........**.
...........

Generation = 326, Population = 5.
........*..
.......*.*.
........**.
...........

Generation = 328, Population = 5.
........*..
.......*.*.
........**.
...........

Generation = 330, Population = 5.
........*..
.......*.*.
........**.
...........

Generation = 332, Population = 5.
........*..
.......*.*.
........**.
...........

Generation = 334, Population = 5.
........*..
.......*.*.
........**.
...........

Generation = 336, Population = 5.
........*..
.......*.*.
........**.
...........

Generation = 338, Population = 5.
........*..
.......*.*.
........**.
...........

Generation = 340, Population = 5.
........*..
.......*.*.
........**.
...........

Generation = 342, Population = 5.
........*..
.......*.*.
........**.
...........

Generation = 344, Population = 5.
........*..
.......*.*.
........**.
...........

Generation = 346, Population = 5.
........*..
.......*.*.
........**.
...........

Generation = 348, Population = 5.
........*..
.......*.*.
........**.
...........

Generation = 350, Population = 5.
........*..
.......*.*.
........**.
...........

Generation = 352, Population = 5.
........*..
.......*.*.
........**.
...........

Generation = 354, Population = 5.
........*..
.......*.*.
........**.
...........

Generation = 356, Population = 5.
........*..
.......*.*.
........**.
...........

Generation = 358, Population = 5.
........*..
.......*.*.
........**.
...........

Generation = 360, Population = 5.
........*..
.......*.*.
........**.
...........

Generation = 362, Population = 5.
........*..
.......*.*.
........**.
...........

Generation = 364, Population = 5.
........*..
.......*.*.
........**.
...........

Generation = 366, Population = 5.
........*..
.......*.*.
........**.
...........

Generation = 368, Population = 5.
........*..
.......*.*.
........**.
...........

Generation = 370, Population = 5.
........*..
.......*.*.
........**.
...........

Generation = 372, Population = 5.
........*..
.......*.*.
........**.
...........

*** Life<Cell> 4x1 ***

Generation = 0, Population = 4.
0
0
0
0

Generation = 5, Population = 2.
.
1
1
.

Generation = 10, Population = 0.
.
.
.
.

Generation = 15, Population = 0.
.
.
.
.

Generation = 20, Population = 0.
.
.
.
.

Generation = 25, Population = 0.
.
.
.
.

Generation = 30, Population = 0.
.
.
.
.

Generation = 35, Population = 0.
.
.
.
.

Generation = 40, Population = 0.
.
.
.
.

Generation = 45, Population = 0.
.
.
.
.

Generation = 50, Population = 0.
.
.
.
.

Generation = 55, Population = 0.
.
.
.
.

Generation = 60, Population = 0.
.
.
.
.

Generation = 65, Population = 0.
.
.
.
.

Generation = 70, Population = 0.
.
.
.
.

Generation = 75, Population = 0.
.
.
.
.

Generation = 80, Population = 0.
.
.
.
.

Generation = 85, Population = 0.
.
.
.
.

Generation = 90, Population = 0.
.
.
.
.

Generation = 95, Population = 0.
.
.
.
.

Generation = 100, Population = 0.
.
.
.
.

Generation = 105, Population = 0.
.
.
.
.

Generation = 110, Population = 0.
.
.
.
.

Generation = 115, Population = 0.
.
.
.
.

Generation = 120, Population = 0.
.
.
.
.

Generation = 125, Population = 0.
.
.
.
.

Generation = 130, Population = 0.
.
.
.
.

Generation = 135, Population = 0.
.
.
.
.

Generation = 140, Population = 0.
.
.
.
.

Generation = 145, Population = 0.
.
.
.
.

Generation = 150, Population = 0.
.
.
.
.

Generation = 155, Population = 0.
.
.
.
.

Generation = 160, Population = 0.
.
.
.
.

Generation = 165, Population = 0.
.
.
.
.

Generation = 170, Population = 0.
.
.
.
.

Generation = 175, Population = 0.
.
.
.
.

Generation = 180, Population = 0.
.
.
.
.

Generation = 185, Population = 0.
.
.
.
.

Generation = 190, Population = 0.
.
.
.
.

Generation = 195, Population = 0.
.
.
.
.

Generation = 200, Population = 0.
.
.
.
.

Generation = 205, Population = 0.
.
.
.
.

Generation = 210, Population = 0.
.
.
.
.

Generation = 215, Population = 0.
.
.
.
.

Generation = 220, Population = 0.
.
.
.
.

Generation = 225, Population = 0.
.
.
.
.

Generation = 230, Population = 0.
.
.
.
.

Generation = 235, Population = 0.
.
.
.
.

Generation = 240, Population = 0.
.
.
.
.

Generation = 245, Population = 0.
.
.
.
.

Generation = 250, Population = 0.
.
.
.
.

Generation = 255, Population = 0.
.
.
.
.

Generation = 260, Population = 0.
.
.
.
.

Generation = 265, Population = 0.
.
.
.
.

Generation = 270, Population = 0.
.
.
.
.

Generation = 275, Population = 0.
.
.
.
.

Generation = 280, Population = 0.
.
.
.
.

Generation = 285, Population = 0.
.
.
.
.

Generation = 290, Population = 0.
.
.
.
.

Generation = 295, Population = 0.
.
.
.
.

Generation = 300, Population = 0.
.
.
.
.

Generation = 305, Population = 0.
.
.
.
.

Generation = 310, Population = 0.
.
.
.
.

Generation = 315, Population = 0.
.
.
.
.

Generation = 320, Population = 0.
.
.
.
.

Generation = 325, Population = 0.
.
.
.
.

Generation = 330, Population = 0.
.
.
.
.

Generation = 335, Population = 0.
.
.
.
.

Generation = 340, Population = 0.
.
.
.
.

Generation = 345, Population = 0.
.
.
.
.

Generation = 350, Population = 0.
.
.
.
.

Generation = 355, Population = 0.
.
.
.
.

Generation = 360, Population = 0.
.
.
.
.

Generation = 365, Population = 0.
.
.
.
.

Generation = 370, Population = 0.
.
.
.
.

Generation = 375, Population = 0.
.
.
.
.

Generation = 380, Population = 0.
.
.
.
.

Generation = 385, Population = 0.
.
.
.
.

Generation = 390, Population = 0.
.
.
.
.

Generation = 395, Population = 0.
.
.
.
.

Generation = 400, Population = 0.
.
.
.
.

Generation = 405, Population = 0.
.
.
.
.

Generation = 410, Population = 0.
.
.
.
.

Generation = 415, Population = 0.
.
.
.
.

Generation = 420, Population = 0.
.
.
.
.

Generation = 425, Population = 0.
.
.
.
.

Generation = 430, Population = 0.
.
.
.
.

Generation = 435, Population = 0.
.
.
.
.

Generation = 440, Population = 0.
.
.
.
.

Generation = 445, Population = 0.
.
.
.
.

Generation = 450, Population = 0.
.
.
.
.

Generation = 455, Population = 0.
.
.
.
.

Generation = 460, Population = 0.
.
.
.
.

Generation = 465, Population = 0.
.
.
.
.

Generation = 470, Population = 0.
.
.
.
.

Generation = 475, Population = 0.
.
.
.
.

Generation = 480, Population = 0.
.
.
.
.

Generation = 485, Population = 0.
.
.
.
.

Generation = 490, Population = 0.
.
.
.
.

Generation = 495, Population = 0.
.
.
.
.

Generation = 500, Population = 0.
.
.
.
.

Generation = 505, Population = 0.
.
.
.
.

Generation = 510, Population = 0.
.
.
.
.

Generation = 515, Population = 0.
.
.
.
.

Generation = 520, Population = 0.
.
.
.
.

Generation = 525, Population = 0.
.
.
.
.

Generation = 530, Population = 0.
.
.
.
.

Generation = 535, Population = 0.
.
.
.
.

Generation = 540, Population = 0.
.
.
.
.

Generation = 545, Population = 0.
.
.
.
.

Generation = 550, Population = 0.
.
.
.
.

Generation = 555, Population = 0.
.
.
.
.

Generation = 560, Population = 0.
.
.
.
.

Generation = 565, Population = 0.
.
.
.
.

Generation = 570, Population = 0.
.
.
.
.

Generation = 575, Population = 0.
.
.
.
.

Generation = 580, Population = 0.
.
.
.
.

Generation = 585, Population = 0.
.
.
.
.

Generation = 590, Population = 0.
.
.
.
.

Generation = 595, Population = 0.
.
.
.
.

Generation = 600, Population = 0.
.
.
.
.

Generation = 605, Population = 0.
.
.
.
.

Generation = 610, Population = 0.
.
.
.
.

Generation = 615, Population = 0.
.
.
.
.

Generation = 620, Population = 0.
.
.
.
.

Generation = 625, Population = 0.
.
.
.
.

Generation = 630, Population = 0.
.
.
.
.

Generation = 635, Population = 0.
.
.
.
.

Generation = 640, Population = 0.
.
.
.
.

Generation = 645, Population = 0.
.
.
.
.

Generation = 650, Population = 0.
.
.
.
.

Generation = 655, Population = 0.
.
.
.
.

Generation = 660, Population = 0.
.
.
.
.

Generation = 665, Population = 0.
.
.
.
.

Generation = 670, Population = 0.
.
.
.
.

Generation = 675, Population = 0.
.
.
.
.

Generation = 680, Population = 0.
.
.
.
.

Generation = 685, Population = 0.
.
.
.
.

Generation = 690, Population = 0.
.
.
.
.

Generation = 695, Population = 0.
.
.
.
.

Generation = 700, Population = 0.
.
.
.
.

Generation = 705, Population = 0.
.
.
.
.

Generation = 710, Population = 0.
.
.
.
.

Generation = 715, Population = 0.
.
.
.
.

Generation = 720, Population = 0.
.
.
.
.

Generation = 725, Population = 0.
.
.
.
.

Generation = 730, Population = 0.
.
.
.
.

Generation = 735, Population = 0.
.
.
.
.

Generation = 740, Population = 0.
.
.
.
.

Generation = 745, Population = 0.
.
.
.
.

Generation = 750, Population = 0.
.
.
.
.

Generation = 755, Population = 0.
.
.
.
.

Generation = 760, Population = 0.
.
.
.
.

Generation = 765, Population = 0.
.
.
.
.

Generation = 770, Population = 0.
.
.
.
.

Generation = 775, Population = 0.
.
.
.
.

Generation = 780, Population = 0.
.
.
.
.

Generation = 785, Population = 0.
.
.
.
.

Generation = 790, Population = 0.
.
.
.
.

Generation = 795, Population = 0.
.
.
.
.

Generation = 800, Population = 0.
.
.
.
.

Generation = 805, Population = 0.
.
.
.
.

Generation = 810, Population = 0.
.
.
.
.

Generation = 815, Population = 0.
.
.
.
.

Generation = 820, Population = 0.
.
.
.
.

Generation = 825, Population = 0.
.
.
.
.

Generation = 830, Population = 0.
.
.
.
.

Generation = 835, Population = 0.
.
.
.
.

Generation = 840, Population = 0.
.
.
.
.

Generation = 845, Population = 0.
.
.
.
.

Generation = 850, Population = 0.
.
.
.
.

Generation = 855, Population = 0.
.
.
.
.

Generation = 860, Population = 0.
.
.
.
.

Generation = 865, Population = 0.
.
.
.
.

Generation = 870, Population = 0.
.
.
.
.

Generation = 875, Population = 0.
.
.
.
.

Generation = 880, Population = 0.
.
.
.
.

Generation = 885, Population = 0.
.
.
.
.

Generation = 890, Population = 0.
.
.
.
.

Generation = 895, Population = 0.
.
.
.
.

Generation = 900, Population = 0.
.
.
.
.

Generation = 905, Population = 0.
.
.
.
.

Generation = 910, Population = 0.
.
.
.
.

Generation = 915, Population = 0.
.
.
.
.

Generation = 920, Population = 0.
.
.
.
.

Generation = 925, Population = 0.
.
.
.
.

Generation = 930, Population = 0.
.
.
.
.

Generation = 935, Population = 0.
.
.
.
.

Generation = 940, Population = 0.
.
.
.
.

Generation = 945, Population = 0.
.
.
.
.

Generation = 950, Population = 0.
.
.
.
.

Generation = 955, Population = 0.
.
.
.
.

Generation = 960, Population = 0.
.
.
.
.

Generation = 965, Population = 0.
.
.
.
.

Generation = 970, Population = 0.
.
.
.
.

Generation = 975, Population = 0.
.
.
.
.

Generation = 980, Population = 0.
.
.
.
.

Generation = 985, Population = 0.
.
.
.
.

Generation = 990, Population = 0.
.
.
.
.

Generation = 995, Population = 0.
.
.
.
.

Generation = 1000, Population = 0.
.
.
.
.

Generation = 1005, Population = 0.
.
.
.
.

Generation = 1010, Population = 0.
.
.
.
.

Generation = 1015, Population = 0.
.
.
.
.

Generation = 1020, Population = 0.
.
.
.
.

Generation = 1025, Population = 0.
.
.
.
.

Generation = 1030, Population = 0.
.
.
.
.

Generation = 1035, Population = 0.
.
.
.
.

Generation = 1040, Population = 0.
.
.
.
.

Generation = 1045, Population = 0.
.
.
.
.

Generation = 1050, Population = 0.
.
.
.
.

Generation = 1055, Population = 0.
.
.
.
.

Generation = 1060, Population = 0.
.
.
.
.

Generation = 1065, Population = 0.
.
.
.
.

Generation = 1070, Population = 0.
.
.
.
.

Generation = 1075, Population = 0.
.
.
.
.

Generation = 1080, Population = 0.
.
.
.
.

Generation = 1085, Population = 0.
.
.
.
.

Generation = 1090, Population = 0.
.
.
.
.

Generation = 1095, Population = 0.
.
.
.
.

Generation = 1100, Population = 0.
.
.
.
.

Generation = 1105, Population = 0.
.
.
.
.

Generation = 1110, Population = 0.
.
.
.
.

Generation = 1115, Population = 0.
.
.
.
.

Generation = 1120, Population = 0.
.
.
.
.

Generation = 1125, Population = 0.
.
.
.
.

Generation = 1130, Population = 0.
.
.
.
.

Generation = 1135, Population = 0.
.
.
.
.

Generation = 1140, Population = 0.
.
.
.
.

Generation = 1145, Population = 0.
.
.
.
.

Generation = 1150, Population = 0.
.
.
.
.

Generation = 1155, Population = 0.
.
.
.
.

Generation = 1160, Population = 0.
.
.
.
.

Generation = 1165, Population = 0.
.
.
.
.

Generation = 1170, Population = 0.
.
.
.
.

