*** Life<Cell> 9x9 ***

Generation = 0, Population = 3.
---------
---------
---------
---------
---000---
---------
---------
---------
---------

Generation = 1, Population = 10.
---------
---------
---------
---000---
--01-10--
---000---
---------
---------
---------

Generation = 2, Population = 12.
---------
---------
---000---
---------
-01*-*10-
---------
---000---
---------
---------

Generation = 3, Population = 28.
---------
---000---
--01-10--
-00-0-00-
01-.-.-10
-00-0-00-
--01-10--
---000---
---------

*** Life<Cell> 2x2 ***

Generation = 0, Population = 3.
00
0-

Generation = 1, Population = 2.
-1
1-

Generation = 2, Population = 0.
--
--

Generation = 3, Population = 0.
--
--

*** Life<Cell> 10x10 ***

Generation = 0, Population = 8.
----------
-0--------
--0-------
---00-----
----0-----
----------
---0------
---0------
----------
---------0

Generation = 2, Population = 18.
--0-------
----0-----
0---------
--0--10---
---0--0---
----1-----
-0--10----
-0---0---0
---1------
---0---0--

Generation = 4, Population = 24.
--0-1-----
-----1----
0--0--1---
1--1-.-10-
0-------0-
-1--.----0
--1----0--
---*0--0-0
---.1-----
---*-0-0--

Generation = 6, Population = 32.
---0------
1-------0-
-1---0----
1-1.-.0*--
---1---0--
0--0.--10-
-----0--10
--0*-*1--0
--0.*-00--
-0-*10-0--

Generation = 8, Population = 27.
---0------
-------1--
-------1--
--1*-**.-0
---.---01-
-*1*.111--
--*-*----0
---.-*---*
0-*..00---
---**-----

Generation = 10, Population = 38.
-0-0-0-1--
--01--1.--
-------.11
1-.*-**.-0
--0.1-*-.-
1.....1101
--.-.---*-
-1-.0.111.
--**.--10-
-00**-1--0

*** Life<Cell> 50x50 ***

Generation = 0, Population = 20.
00------------------------------------------------
--------------------------------------------------
-------0------------------------------------------
--------------------0-----------------------------
-------0------------0-----------------------------
--------------------0-----------------------------
--------------------------------------------------
--------000---------------------------------------
--------0-----------------------------------------
---------0----------------------------------------
--------------------------------------------------
--------------------------------------------------
--0-----------------------------------------------
--------------------------------------------------
--------------------------------------------------
--------------------------------------------------
--------------------------------------------------
--------------------------------------------------
--------------------------------------------------
--------------------------------------------------
------------------0-------------------------------
--------0-----------------------------------------
--------------------------------------------------
--------------------------------------------------
--------------------------------------------------
--------------------------------------------------
--------------------------------------------------
-------------0------------------------------------
--------------------------------------------------
--------------------------------------------------
--------------------------------------------------
--------------------------------------------------
--------------------------------------------------
--------------------------------------------------
--------------------------------------------------
----------------------------------------0---------
--------------------------------------------------
--------------------------------------------------
--------------------------------------------------
-----------------------------------------------0--
--------------------------------------------------
--------------------------------------------------
--------------------------------------------------
--------------------------------------------------
--------------------------------------------------
--------------------------------------------------
--------------------------------------------------
--------------------------------------------------
------------------------------------------0-------
-------------------------------------------------0

Generation = 5, Population = 226.
**11*10------------0*0----------------------------
0-0000-----0-------0*0----------------------------
**--0---00--0---0---*---0-------------------------
-------0--10---0101-*-1010------------------------
11--0--0*1--0--0-0-----0-0------------------------
00-0---0-.10---0101-*-1010------------------------
----00--.0--000-0---*---0-------------------------
--00--1*--.1*-10---0*0----------------------------
-0--10--1--0*00----0-0----------------------------
--0---01--.---0----010----------------------------
-----0--100--0------0-----------------------------
0-----00--*0--------------------------------------
-0---0--100---------------------------------------
0-----0---0---------------------------------------
---------0----------------------------------------
--0---------------0-------------------------------
-0-0----0--------0-0------------------------------
--0----0-0--------0-------------------------------
--------0-----------------------------------------
--------------0-------0---------------------------
----0-------00-0-----0-0--------------------------
---0-0-----0-00-------0---------------------------
----0-------00------------------------------------
------------0-0---0-------------------------------
--------0----0---0-0------------------------------
-------0-0--------0-------------------------------
--------00-------0--------------------------------
--------0-0-----0-0-------------------------------
---------0-------0--------------------------------
--------------------------------------------------
-------------0--------------------------0---------
------------0-0------------------------0-0--------
-------------0--------------------------0---------
--------------------------------------------------
------------------------------------0-------0--0--
-----------------------------------0-0-----0-00-0-
------------------------------------0-------0--0--
--------------------------------------------------
----------------------------------------0--0-----0
---------------------------------------0-00-0---0-
----------------------------------------0--0-----0
--------------------------------------------------
-----------------------------------------------0--
------------------------------------------0---0-0-
-----------------------------------------0-0---0-0
------------------------------------------0-----0-
--------------------------------------------------
--------------------------------------0---0---0-0-
-------------------------------------0-0-0-0-----0
--------------------------------------0---0-0-0-0-

Generation = 10, Population = 251.
...****1-.10---0--1-.-1---------------------------
-10.--011.1-0--1----.----0--0---------------------
..-0---0..---0-1*0--.---1---1---------------------
..0010-**1*1.11-.-.-.-.-.-1-*-0-------------------
.*--0--...-1-1-1-0--------0---0-------------------
0--0--..*..1---1*1.-.-.-.-1-*-0-------------------
*-*--.1-.--.-1--.10-.-*-1---1---------------------
--.*-.**--...1***10-.1--*0--0---------------------
0--*.*-.-*.-.-1-----1-*-0-------------------------
1*11*1-**..*.**-01--.01---------------------------
-1-0-01-*1*-0-0-0-0-.-----------------------------
-0--11-.-*.*.*0--01-.-0---------------------------
--0--1-0.1*0----0-0-1-0---------------------------
------01-1.-0-----1-*-0---------------------------
----0--0-1--------0-1-----------------------------
------010..10-------0-----------------------------
------0-.11---------------------------------------
-------00110-0------------------------------------
--0-----0-0---------------0-----------------------
0--------0-0---00---------------------------------
1---0---0---*-----------0---0---------------------
0-1----------.1---0-------------------------------
--0-------0---------------0-----------------------
0-----------.---0---------------------------------
--------------------------------------------------
-----0---.-----------0------------------0---------
------------------0-------------------------------
---0---1.----------0---0--------------0---0-------
----------------0---0-----------------------------
-----00---0----------0------------------0------0--
------------------0-------------------------------
--------0------------------------------------0---0
--------------------------------------------------
-------------0------------------0--------------00-
--------------------------------------------------
-----------0---0--------------0---0----------..---
--------------------------------------------------
-------------0------------------0------0-----0--0-
--------------------------------------------------
-------------------------------------0---..----0-0
----------------------------------------0-1-0-----
---------------------------------------00----0-0--
--------------------------------------------------
--------------------------------------0---1----0--
----------------------------------------1---0-----
----------------------------------------0------0-0
----------------------------------0-------0-------
-----------------------------------------0-0-0---0
--------------------------------0---0-------------
---------------------------------------0-----0-0--

Generation = 15, Population = 849.
...*...*-.-**--1--**.0--0-00.0100-----------------
.**.*1--**..010*-*--.1-1*-1..0--10----------------
**1--1--**..0**-..--.--0*-1-.0-0-00---------------
*.1-.--**..*..*0*-.-.1*..-.-.0*-*-10--------------
*.1*-0..**.***-.*.-1*100-0-0-0-0-0-0--------------
1---10......-0--..*-.1*1.0*-.0*-*-10--------------
*0....***0**-.10**-..-*-*-*0*--0-00---------------
-*..-**.*.......*.10.*.-*-.-.0--10----------------
---*..*.*.*-.*11.0*0.-.--0-010-00-----------------
*.*..**...*....*0*-0.*-*--00.-10------------------
--****.**.*---0-.-*-*-0-.000-00-------------------
.*0-.*1*-.*.**01*.*-*1-*1---10--------------------
-1-0-.....*-0*---000*0-----00---------------------
-.--0-..*1***1-0*.1-**-**--0----------------------
1----0-1-*--0---0-10*-0---10----------------------
11***.*.1.*..-1-----*-1--00-0---------------------
---0---**1.**1-0*-1-----10-0-0--------------------
----*1--*.110---0-00*--00-0-0-0-------------------
--1----01..----00--0*-10-0-0-0-0------------------
*0-01--0.---..1**1--0-0-0-0-0-0-0-----------------
*--000----.-.-11100---00-0-0-0-0-0------0---------
--.-1*1-11-1-**..-10-*-00-0-0-0-0------0-0--------
1---00001--*0-**001-0-1--0-0-0-0------0-0-0-------
-0-1-00-0-0*.--1-0-1-0----0-0-0------0-0-0-0------
--0-1-0--00-110-*-0-1------0-0------0-0-0-0-0--0--
---0-111-..00-10-*-0--------0------0-0-0-0-0-00-0-
--1--0*0--0--01-0-1---------------0-0-0-0-0-0000-0
-0----*.*---0--1-0----------0----0-0-0-0-0-00**00-
0000-0*0*0*---0-1----------0----0-0-0-0-0-0000000-
01101****010-*-0----------0----0-0-0-0-0-0011001-1
-0000000-0000-1----------0----0-0-0-0-0-000000--0-
--01*00---01*0----------0----0-0-0-0-0-00**00---..
---00000-00000---------0----0-0-0-0-0-00000000----
----01100*100-0-------0----0-0-0-0-0-001100110-.--
-----0000000-0-0-----0----0-0-0-0-0-00000---00-0-0
------01*00-0-0-0---0----0-0-0-0-0-00**00-0--**-1-
-------000-0-0-0-0-0------0-0-0-0-00000-1---1----0
--------0-0-0-0-0-0--------0-0-0-0011001---1-01-0-
---------0-0-0-0-0----------0-0-00000-0-.11010----
----------0-0-0-0------------0-00**0001**..-0-0---
-----------0-0-0--------------0-000-1-1-.-*-10-0*0
------------0-0----------------0-0-1-0-*--01*101*1
-------------0------------------001-00000-100-0-0-
--------------------------------00*00*1111-01*-10-
-------------------------------0-00-001-.-*-0-00-0
------------------------------0-0--0-0-0.1-1-10-0-
-----------------------------0-0----000-000000----
----------------------------0-0-----01*0..10----0-
---------------------------0-0-----0-00-000--0-0-0
----------------------------0-----0-0--0-00-0---0-

Generation = 20, Population = 574.
.....*.*0.**.1-..*...**-***..01-0---1-------------
....*-..*.**1.-*1*0...0*.-.**1-0---1*-------------
....*.1*....-*****-0.-11.-*..1*0--1-1-------------
..**.****.*.*..-.**..-...1.0*-.-.-.0.0--0---------
..1*--**.***..1....*.-10-1*1-1--0-------0---------
1.0-.-..**..*..1..****.**-.*.-.-*1.0.0--0---------
.-..**...0..***.*.-.*..-.-.1.-0111--1-------------
..*..........*....*0....*..1.11..-11*-------------
.-..**.....-..*-*1*..*.-.--0---0*-0-1-------------
*...*..**.*...*.-.--*.**.-0..0-1-0--0-------------
-*....*.**.-0*-.***-*-1..1*-1-1-0-----------------
*.*1.*..1***......***.-****.-1--------------------
0**0*.**..**..--*.00.**-1-.-----------------------
-*01..*.*..*.--...***.*.**0-----------------------
.1-.*-.--..-*--**---*-.1-0------------------------
.1..**.....*.----0*..-*-*1--------------0---------
*.--.....**.*.-..-.-1-*0*---------0---------------
---0.****...0.1.1*-*.*1---------------------------
.-11101*1..--11--.0-.1.-1-------------------------
.--1-00*.*.0..**..--.-000-----------1-------0--0--
.-.1**-*.0.*.*..*.---1*-1-----0-------1-----------
.1.-..-*1*-*-....-*-*.1-*1--0---------------------
1--110*0.*-.-1..-1**-0----------------------------
-0-*1*.1.*1..--*-.-*1--------0----------0--0-----0
1100*10**1-..10-*--0*-------------0---------------
**1-.*.1...-*-..-.*000--0-------------------------
--1-.0*--*.1..*-01--------------------------------
***10-...1-*1--..-0------0-------0-----------..00-
--.1.0**.-.1.0-1*-----------------------------0---
0---.....*.10.-010-------------------------1-1----
---1-*.-10--.---------------------------0--0-1*0--
-0--.*..-....*1---------0----0-----------.*1..0-..
--0--0-0.---------0-------------------0-0--*.**--0
------1.***1-0-------------------------11.1.1-.*10
-------01*-0----------------------------*-11-**01-
------0-.1----------1-------0--0-----...*-**...*--
---------0----0-------1--------------01-*...**.-01
----0---1---0--------------------0--1*1.1--.--*1-1
--------------------------------------.*..1**-11--
-------------0----------0--0---1-..----..*.0--111.
------------------0--------------0-0.1**.*..*0.-*-
--------0------------------------001*11.-**.**...1
-----------------------------------0---0-111-1.-0-
---------0-------0-------------0--.-0.*....*..1---
--------------------------0--------01*..**.01*10--
---------------------------------0-0-1-.*.*.*-0--0
-------------------------------------0-0*.*--0----
-------------0-------------------0-0--.-...*--1---
----------------------0---0---0------10-**---10---
-----------------------------0-0----1-01*-011--0--

Generation = 25, Population = 780.
........-***.11.......*-.....0*1--1-.0-0----------
.....-...**..*-*..****......*.1*-11**---1---------
......-..**...**..-*.--1.-.*...-.**-*-------0-----
...**..........-...*.1*....1*1*..-.0*-.-.--010----
..*..-*.......-.....*.*-.-..*11-*0*--------0-0----
..11.**................*.1..**.-.*.0.0.-.--010----
*-*......*.*........**.**-.1.*-..*0-*-------0-----
***....*..*.....**.1*.....*1*.-*..**.-111---------
***........1....*1**...***1.*.*-.0.*1-1-----------
.**.**.*...*..*.-**1.....1*..1***--*.-------------
-..*..........-.....*1*.***-.01*-1--*---0---------
.*.-**..-.*.*......***-**.*.**-*0-*-*0-0-0--------
1*.0...***........**...**-*-00-1100--0--0---------
1.-***.*.**.*1-*..**...*..*.------0010------------
.1***-.11..-.1**...-****10-0---0----0----------0--
.....****.*..1-*-*.....*..----0-0-------------0-0-
**-.........*.1.*-.-.-.0...--0-----------------0--
-11...***..***....-...-10.*--0--------------------
.**---..*..0...-1.1-.....0.0----0---------------0-
.11-**1...**....*.1..*1-1*--**00-0----.---0--..0-0
***-..-..-**...*..-*-..0*0.-.0------.----0-0----0-
*.*-.*-.-.0.-....1.1..**..---.-0-0--------0-------
*0.1.**...-..*.**...-*-----00---0------0-----0--0-
..**-.*1.****-0.1.*..11*000-.---------1-0..-0--0-0
--***11.**0*...0**..*-.--0-------------0---0-0100-
.*.-*.*.**...-..-.*-*.-*-.--------------0-01-11---
-.*0.-.-.*....*-...-.*00-------------0-0*0-1---10-
.***-.....*..11.*10.0-11.---------0-0--0--*-1..---
.-.........*.--.**.--00-0--------0-0-----01.10---0
011-*...**.-***-*.-----0.1--------0-0-0-*-..*..-1*
1..--..-*-.0**--*-------0------0---0-0-1*.-0*1.-.1
*0-.**.*-*..**.---0-----------0-0-0--0---....*-...
*--*1**0.--..1101--------------0---010-0*-*...*-0-
10----*.**.-10*110--------------0-0---1.*...--.*.*
00-001*-***.-10-0--------------000-100-0.-.-..*-.*
01-0-00-.*--0-10-0----.---0--..*101-*.*..1****....
0-*00---0.00.*------.----0-0-0-0---.1---*....****.
-000---01-*11.-0-0--------0-1-000-*-*.1*.--.*0.10.
0---0-01-*0*----0------0---0-0--0--*--**...**1**-1
-----0----01.---------1-0..-0--1-.****.**..11-..-.
------0--*0------------0-0--01-*01*1.*.**..***.1*-
-------0-.----------------0-0--11-.-..-*-****....1
-----0--0------------0--0----0--01..*-11-**1*.**--
----0-0-.---------0-0-00-00---01--.*.*.*..*.*..1.0
-----0--0--------0-0-0--00-0--0--1.-.......-..*.0.
-------0-0--------0-------0----00-1********.*-.1--
--------0----------------------00---..0-...0----1-
------------------0-----------0-0-0-***1....1..*.1
-------------0---0-0-----0-0---0-*0*-.1-..1--.--0-
------------0-0---0-----0---0--0***-1.1*...1.-0.*-

Generation = 30, Population = 956.
........1*.**-***......-....*-*--*.**1*10-0-.-0---
.....-.......*1**..*.......*...*-**..*-0--0*.-0-0-
......1..*.**...**.*.-1..-*....***.*.11*10--.-0-1-
.....***.....*.1..........*1.....-*.*..-*-.0.-*1*-
...*.1..*....***.......1.-.*..-1.**0---001----0---
...**...*..........**....-.*...1.**-*1.**0.-.-*1*-
......*............**....-..*.....1-*1.1--10*-0-1-
...**..****............*....*.**.....--.*.1-.-0-0-
...*....***......-....*.*..**..-*0...1.-*-*---0---
.......*.**.....-..-.*.....*.-*.*-*..1.-*1----00--
-**...*****...-......*..**.-***.0*-0*0.0*---0-----
.**.****.****...........**...*1.-0.-*1*0-1--011--0
...**.....*.*........**....----**0*---.---0-------
..**.**......-*..**..**....*1..1.**-.-11--000--000
....*-.*-.*....*.**-.*..*.*.*.-1.10-1---0-0-------
.......**.....**1.********1*--.-1---.---010--0-1.*
..*...**...*.....1.0**.1..*--*---010.10-1---0-----
.*-*...........*..0...*-...0-.-*11--.-000--00--*10
....--.....0**.**..-.***...-*-1-----0-1---0---1---
........*****........**-..0-..0..*-1-1*----0-..*.1
.......***.**.....-...*0*-.1**1.-1--.-----11---1--
***-*.*.1..**.....*..**.**-1..*0--0111101-1.-00-00
....**....-..*.....**.-0.1--*1*0000---1-*0-*1-0-11
..*.-.....****0.*....******-*0-001000-*.***-0--.-0
-*...-.*..-..*.........--.01----0-----011-1*.0*1.1
...1..**...*.1*....-..-.0.11--0101100--***1.--*..1
-..-.0*******.***.*0..-***01-00---0-1--0.*0.--0**-
....*.*.***..*-...*.--.*.11-00-00-1---0**0****.1.*
.1*.*.**....*-1*.*.--*-0.1--1-------1--1-*-..*..-*
1.*-*...*....*....11--1-.--1--100--0-.**.0....**..
-..-*..-*-..**...1100*-1--0-----*0-1....*.--.-.-..
..-.*****.**...*-.-0100100--1--**--.*--.0...*.-.*.
.-*...*-.-**.*..**.-.11-1----0--.-*.*--..-.*.*.*1.
.-*****....*.*..***1.-01--10---.**---.1*.*...**...
**-01**...**0---1---101---01-*-*00-***-1.-.*...1..
-*---11-*..1.-1.----11*-1-11......*-.*......***...
--*-.0--1.--..010*0-.-----1-0-.1-0-*----..**...**.
-11-*10--1*-..1*11-11110*-0--11.1-.*..-.**-*****-*
-1*1-**.-.-.----100--------*--0.*-1.**...*...*.*.*
1---11-.--...-0101000-*.....-.-**.*.*..*..*.*...*.
1----1---*------0------01*1...*.**...*.***.**.**.0
0-1-0-1-1..1*1--011000----0*1-.1*-...*-*1*....**.*
--0----.---*-00-------0---0*0.**-...*-*...****..**
1--0-1.-..1--0-01-01--..--10-00..**.**....*.*....0
------1-0-1-1-------1---*1...--*-*.-..*..*.-**..-.
-00--*11*0-1-*00-0--00-0*1---1-0--.***....*****-10
--------10--------0---0-----1*01-*01.*-*...0------
---01--0-0-010-0-0-0-001.*0-00-0*1*.....*...-**.*-
------------0---0---0------10001-.-*..--...1-.-1*1
-----001**10-0-0-0---0--1-1--**-***...1....-*-1*.-

Generation = 35, Population = 813.
.....*****.............-..**.-.-0..***..-1-0.0---0
...*****...*.............*.*....-.*...----1..-0---
......**...****.*....1-..-.*.......*..*..--0.----0
...***.***..*..**..........1*....-.*...1*-****.-*-
....*****...*..**.*....-.1*...*...*..*-0-*----0---
....***.....***..........-*.*......*.*...0.-*0**.-
....***.............***..-........*-.1*.-011.10-10
.....*..............*.**.....*....*..-.**.1*.*1--0
.................-..***.....***-.1.....-...-**.010
............*...-..-.*......****.-**.-.1..0--0-10-
..*.......****-............-...***0....0..-0*010--
.***......**.*................-.11*-*.*-0-0---.---
..........**........***....111-..-.---.1--.--0--0-
.......*....................***-.*......-*.11-11-1
.....**............-......*...1..*--*1-*1-1-----0-
....*.*.**................*.**.1*1**.--*-1-0-*-1..
......*..*.......-.-.....**.-.***0....-**-*-.-1*0-
......****...***..-..***.*.-..-***.-.-*0-...---.-1
....--.*..*0*.*....***..**.0.-.*11*--..0*-.*-*.-0*
.......**......*..***..-..01*.-...--...----.*.*.**
.*..*...*.*...*...**..*0.*.-.***..*-.--1.1*1--.**0
.*.-*........*.*.***...**.-..*.*---*1-...1..1-11**
...*..........**......-1**-**.**.-..----.--..-*1.*
..........**.*..*......**..-.-1-0.--*-..*....*-.*-
-....-....-*..***.......1*..-.-.-.01--1..-...1...*
...**........-...*..........*--.*-.-0--....*1...**
-.*-.1.......*..*.......**-1*-*.0--*..1-.**..1-..*
..***........*..........*.*11-1..-.-0****0.*..**.*
..*..*......**.*...01*1...-0..*-0.*.--*-**..**....
1..-**..........*.*-.1--.-1-1*.0*-11-**.......*...
-*.1*..0......**.*.*..-..--*0--*..1.***...--*.****
*.*.*........***-*.1.-*.....-.*..11*.-0.-.*.**-...
.*.......-...*...*.1.-*1.**0-0-1.-*..0...*......-.
....*........**.***..-*.--1-*.-*.*1--.............
..*-*........-.*.1*-*.*-.-..-.-.*--...-......**-..
1*1.-.--.....-...-*-*..-1-.*.***.*.-........*..*..
*-...-....-....*..*-**-0.--00*.-**1.-1-0...**....*
--*..1-.*.*.*....*-*-*.1.-*.-.****.*..-***.......*
0-.*-...*.*.1*-..--.-----0-**-*..*.*.....*.***....
.-*-**0.-....0-*-..111*....*-.1.***....*.*...****.
*.--*.*-1*--*110-1-*-10.1.-..........*.*......***.
-*..10**.*.*.*-0.*-0**0.*-..*.*-.-....-..*......**
-11*.1..0-0.0*----01--*-*11**.*......**..*..**...*
**-1.-*1...0-.-**--*-**.1-*.0.*...*..*...*.....*.*
1-*-10.0..**-1*--0--*00-.*....*....-*.*...*-*..***
0-1-.**...--*.11---0*1.1.--*0..0.-*.*.**.*..*.*1*.
-0-0-00..*0.*1-----010-*.***1*1.*.*-.*-***.*-*1*1.
--0-.**00*-..1----0-01*....-*.-*.....*...***-.....
-------1*1.*-0--------001--.*--*.*-..**1..*-*..-*.
----0-0*..-.-00--------1*-.0****..****1....1**.**-

Generation = 40, Population = 744.
.........***...........-...**..11*...**.*--0.1-0--
........*..**.............*..*..-....*-**11*.0*---
.......*....**.......-1..-...............--..-**-0
............*...........**.-*....-**.***.1.....1.-
........*..*...........*..*......********.-*0-.1.1
.....*...***.*.*.........*......*...*...*1.-.....*
....*.*......*.*.......*.-......**.**1**-..*..--.1
....*.*.....*..*........**..**...*****...*-*.*---1
.....*........*..-...**.**..***-.-*.*..1...1***-.1
..*.........*..*-.**..*.....*....-...*...*-1.-**0-
.*.*...........*..*...*....-.***..........*-**-*11
*....***......**......**.....*1.-..*...10-0*1*..--
.*......**...**....**.*......-1*.0..--**.0.-1-.--0
..**.....*...*.......*..........*......*..*.....*-
......***...**.....-..............11..-..0*-1*-10-
......*.....*........*.....***.-.*..*..*.1-*-*-...
.....*.***..*..*.-.0*******.*....-....1***.*.1..1-
.....*..***.***.*.-.*.**...-*.*....-...1-*.*---.1.
....-1*.*..1*..............*.-.....1-..1....1..1-.
......*..*.**.............-..*...***..*-1-........
......**...*.......***.-.*....***...**--*1..*-...-
...-...**..*........**..**1...***-..**.**.....1-..
.........*...........*...*0*......*.--*0***..-.-..
...*.............**...**.**.*..--..-.*.....***-...
-.**.1....-..**..**....*.**..**.1*1.-**..-..**....
.*..*.......*..*.....*.**.....1..*..0*-*..*.*.***.
0**-.**.....*..*......*..**-.-*.**.*...-**...--**.
...*..*........*..*....**...-*-***.*.....-.**.....
...*.......*..*...*.***...-....1-....*.-...*......
...1...*..*...**......**..1*1.*1*-..*.**..........
.*.....1..*...**..*...*..-1*-11**....*..*....*....
..*..*....*.....0.*-*.*...*.1***.*1..*..-*...*....
..***....-.**.*.*...**.......1**.*...-.....*.*..*.
...........**.***.*..-**-*.0**.**..-1......***..*.
...0.............****.*1.-*.....****..-.***....1..
..-..**1....*.*..-.1...**-...*..**.1*......*.***..
....*-.*..-.*.....*-**.-.-*0-*...*****........****
0..*.--......**...1....*****-....**........*......
-***-......**....*-.**10-0-*.0.............*....**
....**1.-.*..-.....1-*..**....*..*...*....*.......
.*1-......*-..--1.-*......-.**..**.*....**.....*..
-*..-.....*...***..1*.***......**.***.*........*..
-.......-.-.*.*-101..*.-.1..**....***........***..
*.0....*....-.0.......***-........................
-1...0....**1..-11-0.-01.*.*.*.............-......
*..-**.***11..1.---1..*..*-*1*.......*.........1..
0.-10*.****..**.-0-01.-..........**...1*...*......
00-1*..-*.1*.-0*00.11.*...*-.*0.***..*..*****.....
--*1-...**..*-1*0---0---.-..*1-...-..**.*..1*..-..
00-*0.-.**-.0-**1---1*0**-**....**.....**.........

Generation = 45, Population = 671.
..........****.........-....*...-.......*.1.*..---
........**.*.**.........**.***..-........*-..**---
.............***.....1**.**.**.......***.**..-*..-
............***........*...-....**...*..*-*....-.-
............**........**.**.....*.*..*.*..1.1*.**.
.....**...............*****.....*.*..*.....-**...*
....*.**.*.*.........**......**..*..*.....***.*1.-
....*.**...**........*......*........*..*.-......-
..*..*.....**.*..-..**.......**0.-...*.-*.....*-..
.***.........*..-................-....***....1*.1-
*.*..*............*.*.........*............-.*.*..
**......*.........*.*.........**1...****.*-**.*..1
*.***..*.**..**.....*...**...1-**-..*....1.*..*0-0
.***.....*............******..**......*......*....
..**.*.*.....***..**.*.....*.***......-.*-.-..0*-1
....*..*......*****............1......*..-*...1**.
....*.......***.*-*.*...*........*...***.***...***
...............***-**.**...-*...***....1..**-.-.**
.....1..**.-.**...........*..1...*.........*-..1-.
...**...............***...-..**..*..*..-.-**......
...*......*.........*........*...**...*.***..-...-
..***.*...*.........**.*.*..**..****.....**...**..
.......***.............*..-.*...*.*.1..-.....0.**.
...*....**............*........1*..1**.......*....
*..*.-....-......***........*.......1*.**-..**....
..*................*...**.....1.....1..**...**.**.
1**-.***..........*.*...**.*.**......*.-*.....1*..
*.*........*.*....*.....***...........***-...*....
.*.........**....**.*...**-.**.-.......1*....*....
.*...........*..........**-.**.-.......**.........
....**.........*..*.........1**.......**....***...
....*.**.....***-..*.................**......**...
......*......**..*.*.....*.*........***...*.***...
.....**.*.....**.....1..-.**.......0-...***....**.
...-....*....**....*....***..*........-.*.*....*.*
..-...**.....**......*.*.1*..**..........*.......*
.....-**..-..**......**-*...1.*.**............***.
-*...--*......**..**..........**..*............*..
0.*.-.***.....*...**.**0---....*...*..............
.....**.*...*-.*..*****......*..****.*...*........
*****..*.*.-.**...........-.........***..*....***.
1*..**....**.**..**.....*..***......*.*......**.**
0.***...-.-..**.1**....-.*.**..........*.....*..**
.*1........*-....**...*.*..**........**.......**..
*...*.*.....**.-.*11..*-.....**.......*....-......
*.*0..*...1-..**0*1-...*...*-*....**....*......-..
-...-.....**...***1-*.-....*.*....**...***........
-*..*..1.*-*....*-.*.......-..**.***.......**.....
--**-......**-..**-.---......***.*....*******..-..
..0*-.-......-..-1001*-..1.......*....***.........

Generation = 50, Population = 644.
............*..........***..*...1.........*..*..-1
..............*.*....*...**.*...**........*.*.****
.............*.**....*..*.**....*..*...*.....-**.0
...............*.....*..**.1...***..*..****......-
.......*...*...*.............*.........*..........
...**.........*.............*.....**...*****....*.
...*.*....**.**......*......*......*...*.........-
.*....*...***......**.*.....*.......*..*.*-*.*.*.1
*..*..*...**.....1*....*...***.**-..**.......*.-*.
*..***..........-.**.**.....*.***1..**.*...****.1*
***......*........**.**.......***.....**...*..****
.**********........*..........*.1........*1....*..
..*.**.*...*.......**.....*..1**.-....*........*-*
....*..*.**........*.....*.*...**.....****.*...*..
.......*.**......***.....*..*.***.....-.*-.-.**.-*
.....**...................***....**..**.*-.*.****.
....**..........**.........**...***..*...*.....*..
....*........*....-.*..........*.**..**...*.***...
...**-.....-.****....*.....*...**.....*.*.****.--.
..**..........*.*....*...........*.....*.1.**.....
..**.............**...*****.*...........*....1*..-
.**....................*****.....***...*.....*....
.........................*1.......*....1*....*.*..
.**...............*...................*.....*..**.
.....**...-.....*.*...**.................-..*.*...
.*...***........*....**.*...............*...**.*..
-***.*.*........*.*...*..*....**...*...***...**...
....**.*...............***....**....*....*.****...
**..*..*......**.......*.*1...*-.....**.*.........
....*......**.**.***....*.-**.**.......**..*......
.....*..*..*********.....**.*.**..........**..**..
.....*..*....***...*.....................***..**..
.....*.........*..*........*.........*...**....*.*
....**..*......****.....***.*..*...-1*.........*..
...*.............*.**....*...........*......*.....
..-..****.........***....-....**........*.*.....**
.*..*-.**.-......*...*..*...*............*.*......
1**.**-..................*..*.....**.........*....
-...-............*.....*.11..*.****...**....***...
..**........*-*...**.*..**....*.***...**.....**...
.***.......****........**...*........*......*.....
..**......**.....**....**....*.........**..***....
-.......-.-*.*...*..*.*-...*..*........**..*......
..1.*....*******.*.*...**....*......**......*...*.
.***....**.....-.......-*....*......*.***..-......
....*...***-....*..*......***.........*..*....*.*.
-..*.....**.......*...-......*.....**..*..*....*..
*..**..-*....****0.*......*.*...*..*.......*......
.-.*0...***.........---.....****....*......*...-..
*.*...-......-..-1101.-..-....***.....*....*......

*** Life<Cell> 4x1 ***

Generation = 0, Population = 3.
0
-
0
0

Generation = 3, Population = 3.
0
1
*
.

Generation = 6, Population = 1.
1
-
.
.

Generation = 9, Population = 1.
-
1
.
.

Generation = 12, Population = 1.
1
-
.
.

Generation = 15, Population = 1.
-
1
.
.

Generation = 18, Population = 1.
1
-
.
.

Generation = 21, Population = 1.
-
1
.
.

Generation = 24, Population = 1.
1
-
.
.

Generation = 27, Population = 1.
-
1
.
.

Generation = 30, Population = 1.
1
-
.
.

*** Life<Cell> 1x10 ***

Generation = 0, Population = 9.
00000-0000

Generation = 1, Population = 4.
1---1-1--1

Generation = 2, Population = 4.
-0-0---00-

Generation = 3, Population = 6.
1---1-1111

Generation = 4, Population = 4.
-0-0--*--*

*** Life<Cell> 4x4 ***

Generation = 0, Population = 6.
----
---0
-000
--00

Generation = 2, Population = 11.
-001
-10-
1*--
0000

Generation = 4, Population = 9.
-0*.
-*0-
-**-
0-0*

Generation = 6, Population = 8.
1-**
1.-*
1*.-
0--.

Generation = 8, Population = 8.
.-**
-.-*
****
*--.

Generation = 10, Population = 10.
.1**
*.-.
*..*
*11*

Generation = 12, Population = 9.
.***
*.-*
*..*
.11.

Generation = 14, Population = 9.
.***
*.-*
*..*
.**.

Generation = 16, Population = 9.
.***
*.-*
*..*
.**.

Generation = 18, Population = 9.
.***
*.-*
*..*
.**.

Generation = 20, Population = 9.
.***
*.-*
*..*
.**.

*** Life<Cell> 32x40 ***

Generation = 0, Population = 12.
----------------------------------------
-000------------------------------------
----------------------------------------
----------------------------------------
----------------------------------------
----------------------------------------
----------------------------------------
----------------------------------------
----------------------------------------
----------------------------------------
----------------------------------------
----------------------------------------
----------------------------------------
---000----------------------------------
----------------------------------------
----------------------------------------
----------------------------------------
----------------------------------------
----------------------------------------
----------------------------------------
--------------------000-----------------
----------------------------------------
----------------------------------------
----------------------------------------
----------------------------------------
----------------------------------------
----------------------------------------
----------------------------------------
----------------------------------------
----------------------------------000---
----------------------------------------
----------------------------------------

Generation = 1, Population = 40.
-000------------------------------------
01-10-----------------------------------
-000------------------------------------
----------------------------------------
----------------------------------------
----------------------------------------
----------------------------------------
----------------------------------------
----------------------------------------
----------------------------------------
----------------------------------------
----------------------------------------
---000----------------------------------
--01-10---------------------------------
---000----------------------------------
----------------------------------------
----------------------------------------
----------------------------------------
----------------------------------------
--------------------000-----------------
-------------------01-10----------------
--------------------000-----------------
----------------------------------------
----------------------------------------
----------------------------------------
----------------------------------------
----------------------------------------
----------------------------------------
----------------------------------000---
---------------------------------01-10--
----------------------------------000---
----------------------------------------

Generation = 2, Population = 44.
----------------------------------------
1*-*10----------------------------------
----------------------------------------
-000------------------------------------
----------------------------------------
----------------------------------------
----------------------------------------
----------------------------------------
----------------------------------------
----------------------------------------
----------------------------------------
---000----------------------------------
----------------------------------------
-01*-*10--------------------------------
----------------------------------------
---000----------------------------------
----------------------------------------
----------------------------------------
--------------------000-----------------
----------------------------------------
------------------01*-*10---------------
----------------------------------------
--------------------000-----------------
----------------------------------------
----------------------------------------
----------------------------------------
----------------------------------------
----------------------------------000---
----------------------------------------
--------------------------------01*-*10-
----------------------------------------
----------------------------------000---

Generation = 3, Population = 100.
00-000----------------------------------
*.-.-10---------------------------------
0-0-00----------------------------------
01-10-----------------------------------
-000------------------------------------
----------------------------------------
----------------------------------------
----------------------------------------
----------------------------------------
----------------------------------------
---000----------------------------------
--01-10---------------------------------
-00-0-00--------------------------------
01-.-.-10-------------------------------
-00-0-00--------------------------------
--01-10---------------------------------
---000----------------------------------
--------------------000-----------------
-------------------01-10----------------
------------------00-0-00---------------
-----------------01-.-.-10--------------
------------------00-0-00---------------
-------------------01-10----------------
--------------------000-----------------
----------------------------------------
----------------------------------------
----------------------------------000---
---------------------------------01-10--
--------------------------------00-0-00-
-------------------------------01-.-.-10
--------------------------------00-0-00-
---------------------------------01-10--

Generation = 4, Population = 65.
-1-1------------------------------------
*.0.1*10--------------------------------
-0-0------------------------------------
----------------------------------------
----------------------------------------
-000------------------------------------
----------------------------------------
----------------------------------------
----------------------------------------
---000----------------------------------
----------------------------------------
----------------------------------------
---0-0----------------------------------
1*1.-.1*10------------------------------
---0-0----------------------------------
----------------------------------------
--------------------000-----------------
---000----------------------------------
----------------------------------------
--------------------0-0-----------------
----------------01*1.-.1*10-------------
--------------------0-0-----------------
----------------------------------------
----------------------------------------
--------------------000-----------------
----------------------------------000---
----------------------------------------
----------------------------------------
----------------------------------0-0---
------------------------------01*1.-.1*1
----------------------------------0-0---
----------------------------------*0*---

Generation = 5, Population = 152.
--0--000--------------------------------
*.-.**-10-------------------------------
--0--000--------------------------------
-1-1------------------------------------
-000------------------------------------
01-10-----------------------------------
-000------------------------------------
----------------------------------------
---000----------------------------------
--01-10---------------------------------
---000----------------------------------
---1-1----------------------------------
00-----000------------------------------
****-***-10-----------------------------
00-----000------------------------------
---1-1--------------000-----------------
---000-------------01-10----------------
--01-10-------------000-----------------
---000--------------1-1-----------------
----------------000-----000-------------
---------------01-***-***-10------------
----------------000-----000-------------
--------------------1-1-----------------
--------------------000-----------------
-------------------01-10----------000---
--------------------000----------01-10--
----------------------------------000---
----------------------------------1-1---
------------------------------000-----00
-----------------------------01-***-****
------------------------------000-101-00
---------------------------------0*-*0--

*** Life<Cell> 5x5 ***

Generation = 0, Population = 5.
0----
-0---
--0--
---0-
----0

Generation = 2, Population = 0.
-----
-----
-----
-----
-----

Generation = 4, Population = 0.
-----
-----
-----
-----
-----

Generation = 6, Population = 0.
-----
-----
-----
-----
-----

*** Life<Cell> 4x4 ***

Generation = 0, Population = 1.
----
----
--0-
----

Generation = 1, Population = 4.
----
--0-
-0-0
--0-

Generation = 2, Population = 2.
--0-
----
0---
----
