*** Life<ConwayCell> 4x4 ***

Generation = 0, Population = 8.
*.*.
*.*.
*.*.
*.*.

Generation = 1, Population = 6.
....
*.**
*.**
....

Generation = 2, Population = 4.
....
..**
..**
....

Generation = 3, Population = 4.
....
..**
..**
....

Generation = 4, Population = 4.
....
..**
..**
....

Generation = 5, Population = 4.
....
..**
..**
....

*** Life<ConwayCell> 4x4 ***

Generation = 0, Population = 16.
****
****
****
****

Generation = 1, Population = 4.
*..*
....
....
*..*

Generation = 2, Population = 0.
....
....
....
....

Generation = 3, Population = 0.
....
....
....
....

Generation = 4, Population = 0.
....
....
....
....

Generation = 5, Population = 0.
....
....
....
....

*** Life<ConwayCell> 5x5 ***

Generation = 0, Population = 13.
*.*.*
.*.*.
*.*.*
.*.*.
*.*.*

Generation = 1, Population = 12.
.***.
*...*
*...*
*...*
.***.

Generation = 2, Population = 16.
.***.
*.*.*
**.**
*.*.*
.***.

Generation = 3, Population = 12.
.***.
*...*
*...*
*...*
.***.

Generation = 4, Population = 16.
.***.
*.*.*
**.**
*.*.*
.***.

Generation = 5, Population = 12.
.***.
*...*
*...*
*...*
.***.

*** Life<ConwayCell> 5x5 ***

Generation = 0, Population = 25.
*****
*****
*****
*****
*****

Generation = 1, Population = 4.
*...*
.....
.....
.....
*...*

Generation = 2, Population = 0.
.....
.....
.....
.....
.....

Generation = 3, Population = 0.
.....
.....
.....
.....
.....

Generation = 4, Population = 0.
.....
.....
.....
.....
.....

Generation = 5, Population = 0.
.....
.....
.....
.....
.....

*** Life<ConwayCell> 1x1 ***

Generation = 0, Population = 1.
*

Generation = 1, Population = 0.
.

Generation = 2, Population = 0.
.

Generation = 3, Population = 0.
.

Generation = 4, Population = 0.
.

Generation = 5, Population = 0.
.

*** Life<ConwayCell> 3x3 ***

Generation = 0, Population = 5.
*.*
.*.
*.*

Generation = 1, Population = 4.
.*.
*.*
.*.

Generation = 2, Population = 4.
.*.
*.*
.*.

Generation = 3, Population = 4.
.*.
*.*
.*.

Generation = 4, Population = 4.
.*.
*.*
.*.

Generation = 5, Population = 4.
.*.
*.*
.*.

*** Life<ConwayCell> 4x3 ***

Generation = 0, Population = 4.
**.
...
**.
...

Generation = 1, Population = 0.
...
...
...
...

Generation = 2, Population = 0.
...
...
...
...

Generation = 3, Population = 0.
...
...
...
...

Generation = 4, Population = 0.
...
...
...
...

Generation = 5, Population = 0.
...
...
...
...

*** Life<ConwayCell> 3x3 ***

Generation = 0, Population = 4.
*.*
...
*.*

Generation = 1, Population = 0.
...
...
...

Generation = 2, Population = 0.
...
...
...

Generation = 3, Population = 0.
...
...
...

Generation = 4, Population = 0.
...
...
...

Generation = 5, Population = 0.
...
...
...

*** Life<ConwayCell> 4x4 ***

Generation = 0, Population = 8.
*.*.
*.*.
*.*.
*.*.

Generation = 1, Population = 6.
....
*.**
*.**
....

Generation = 2, Population = 4.
....
..**
..**
....

Generation = 3, Population = 4.
....
..**
..**
....

Generation = 4, Population = 4.
....
..**
..**
....

Generation = 5, Population = 4.
....
..**
..**
....

*** Life<ConwayCell> 1x1 ***

Generation = 0, Population = 0.
.

Generation = 1, Population = 0.
.

Generation = 2, Population = 0.
.

Generation = 3, Population = 0.
.

Generation = 4, Population = 0.
.

Generation = 5, Population = 0.
.

*** Life<ConwayCell> 3x3 ***

Generation = 0, Population = 8.
***
*.*
***

Generation = 1, Population = 4.
*.*
...
*.*

Generation = 2, Population = 0.
...
...
...

Generation = 3, Population = 0.
...
...
...

Generation = 4, Population = 0.
...
...
...

Generation = 5, Population = 0.
...
...
...

*** Life<ConwayCell> 3x3 ***

Generation = 0, Population = 4.
.*.
*.*
.*.

Generation = 1, Population = 4.
.*.
*.*
.*.

Generation = 2, Population = 4.
.*.
*.*
.*.

Generation = 3, Population = 4.
.*.
*.*
.*.

Generation = 4, Population = 4.
.*.
*.*
.*.

Generation = 5, Population = 4.
.*.
*.*
.*.
