*** Life<FredkinCell> 4x10 ***

Generation = 0, Population = 8.
-00-------
-0--------
-00-------
---0-0-0--

Generation = 3, Population = 20.
-0121--0--
-00-0---0-
2---10-0-0
0000--0-0-

Generation = 6, Population = 15.
-0-2---00-
-1-0---0-0
----23210-
-1-------0

*** Life<FredkinCell> 7x7 ***

Generation = 0, Population = 10.
-0-----
0-0----
-0-----
----0--
---0---
-----00
-----00

Generation = 1, Population = 10.
-------
---0---
----0--
-0---0-
--0--00
---00--
----0--

Generation = 2, Population = 10.
---0---
--0----
-0-----
0----1-
------1
---1--0
----10-

Generation = 3, Population = 10.
----0--
-------
-----0-
----0--
0--0--2
--0---1
----21-

Generation = 4, Population = 18.
---0-0-
----00-
------0
0-----0
-0---03
00--0-2
--0032-

Generation = 5, Population = 20.
--0-010
----1--
0---0-1
-------
010--14
1---1-3
0-1-43-

*** Life<FredkinCell> 4x4 ***

Generation = 0, Population = 16.
0000
0000
0000
0000

Generation = 2, Population = 8.
-22-
2--2
2--2
-22-

Generation = 4, Population = 8.
-44-
4--4
4--4
-44-

*** Life<FredkinCell> 8x9 ***

Generation = 0, Population = 8.
---------
---------
-0---0---
---------
---0-0---
-------0-
--0-0----
---0-----

Generation = 5, Population = 41.
0---0--0-
-000000-0
-0-01101-
-0---0-0-
0-21--040
--0-02-2-
023-1-30-
-00-010-0

Generation = 10, Population = 26.
0101110--
-1-----1-
13----2--
-----2-2-
-----2262
-1-3-4---
3-8--2---
-1-----0-

*** Life<FredkinCell> 10x10 ***

Generation = 0, Population = 10.
----------
--0-------
-----0----
--0-------
--0-------
----0-0---
---0----0-
-0--------
----------
-----0----

Generation = 4, Population = 27.
--1--0----
0-2-0-----
-1-2----10
20----0---
2-----1---
0----0--3-
----10-11-
-10-------
--1-------
----0-0--0

Generation = 8, Population = 27.
---0----0-
-----00---
-52----1--
--4-03----
----23----
12----1-4-
1---2---23
----040--0
--2-------
-0-----1--

*** Life<FredkinCell> 5x5 ***

Generation = 0, Population = 5.
--0--
-----
----0
---00
--0--

Generation = 1, Population = 8.
-0-0-
--0-0
----1
---1-
-0--0

Generation = 2, Population = 11.
0-0--
---01
--0-2
-00-0
0-0--

Generation = 3, Population = 13.
----0
0-01-
--10-
-11-1
-0100

*** Life<FredkinCell> 10x4 ***

Generation = 0, Population = 5.
----
--0-
----
--0-
----
---0
----
-0--
----
--0-

Generation = 1, Population = 16.
--0-
-0-0
----
-0-0
--00
--0-
-0-0
0-0-
-00-
-0-0

*** Life<FredkinCell> 3x2 ***

Generation = 0, Population = 2.
00
--
--

Generation = 1, Population = 4.
11
00
--

Generation = 2, Population = 2.
--
--
00

*** Life<FredkinCell> 5x10 ***

Generation = 0, Population = 6.
----0-----
-0-----0--
------0---
--0----0--
----------

Generation = 2, Population = 15.
--0-0-----
--10-0-0-0
--------0-
01--00-0-0
------0---

Generation = 4, Population = 17.
0-----0-0-
---2-0-0-0
--1-1-----
2-11--10-0
----1-0---

*** Life<FredkinCell> 1x1 ***

Generation = 0, Population = 1.
0

Generation = 1, Population = 0.
-

Generation = 2, Population = 0.
-

Generation = 3, Population = 0.
-

Generation = 4, Population = 0.
-

Generation = 5, Population = 0.
-
