*** Life<FredkinCell> 8x8 ***

Generation = 0, Population = 6.
0-------
--------
--------
---00---
---00---
--------
--------
-------0

Generation = 1, Population = 12.
-0------
0-------
---00---
--0--0--
--0--0--
---00---
-------0
------0-

Generation = 2, Population = 20.
--0-----
---00---
0--11---
-01--10-
-01--10-
---11--0
---00---
-----0--

Generation = 3, Population = 12.
-0--0---
0----0--
------0-
-------0
0-------
-0------
--0----0
---0--0-

Generation = 4, Population = 8.
--00----
--------
0-------
0-------
-------0
-------0
--------
----00--

Generation = 5, Population = 24.
-0110---
0-00----
10------
10-----0
0-----01
------01
----00-0
---0110-

*** Life<FredkinCell> 7x9 ***

Generation = 0, Population = 4.
0--------
---------
---------
--0------
---------
----0----
--------0

Generation = 1, Population = 12.
-0-------
0--------
--0------
-0-0-----
--0-0----
---0-0--0
----0--0-

Generation = 2, Population = 7.
--0------
--0------
0--------
0--------
--------0
------0--
------0--

Generation = 3, Population = 23.
-010-----
0010-----
100------
10------0
0-----00-
-----0100
-----010-

Generation = 4, Population = 14.
--2-0----
----0----
2-------0
2-----0--
1-------0
0---0---1
----0-2--

Generation = 5, Population = 35.
-0--10---
0-1010--0
30--0-00-
-0---0-0-
-0--0-001
10-010102
0--01--00

*** Life<FredkinCell> 8x8 ***

Generation = 0, Population = 10.
000-000-
0-------
0-------
0-------
0-------
--------
--------
--------

Generation = 2, Population = 15.
-02-20-1
--1-----
01--000-
--0-----
--0-----
1-------
0-------
--------

Generation = 4, Population = 19.
----42-1
1-3-0---
23---02-
--2-1---
21---00-
3-------
2-------
1-------

Generation = 6, Population = 28.
113144-1
--3---1-
-51---4-
0-----0-
231-0221
----0---
-10--00-
3-0-----

*** Life<FredkinCell> 1x1 ***

Generation = 0, Population = 1.
0

Generation = 1, Population = 0.
-

*** Life<FredkinCell> 1x2 ***

Generation = 0, Population = 2.
00

Generation = 1, Population = 2.
11

*** Life<FredkinCell> 1x5 ***

Generation = 0, Population = 2.
0---0

Generation = 2, Population = 2.
0---0

*** Life<FredkinCell> 8x8 ***

Generation = 0, Population = 10.
-------0
0-------
0------0
0------0
0------0
0------0
--------
--------

Generation = 2, Population = 19.
1----0-0
--0----0
--0--0-2
0-0--0--
--0--0--
--0--0--
1------1
0------0

Generation = 4, Population = 26.
---0-0--
--2-0--0
--0112-4
--0110--
--0110-0
2-2112--
3------3
--------

Generation = 6, Population = 33.
-00010--
1--0--12
01-3--06
-12-1-1-
-1---20-
-02---11
5--11---
2-0000--

*** Life<FredkinCell> 1x2 ***

Generation = 0, Population = 2.
00

Generation = 1, Population = 2.
11

*** Life<FredkinCell> 2x2 ***

Generation = 0, Population = 4.
00
00

Generation = 1, Population = 0.
--
--

*** Life<FredkinCell> 6x5 ***

Generation = 0, Population = 3.
-----
0----
0----
0----
-----
-----

Generation = 1, Population = 7.
0----
10---
-0---
10---
0----
-----

*** Life<FredkinCell> 3x3 ***

Generation = 0, Population = 6.
0-0
0-0
0-0

Generation = 1, Population = 4.
1-1
---
1-1

Generation = 2, Population = 0.
---
---
---
