*** Life<Cell> 7x7 ***

Generation = 0, Population = 14.
-00----
--00---
----00-
----00-
----00-
-----00
-----00

Generation = 1, Population = 14.
01-----
---1-0-
--0---0
---0110
---0-1-
-----1-
----0--

Generation = 2, Population = 20.
1*00-0-
00-----
-0-0001
-----*-
--010--
---0-*0
---0---

Generation = 3, Population = 26.
-.-1--0
-1--0-0
-1-1-1*
-00-1.-
-01*110
----0*1
--01000

*** Life<Cell> 5x5 ***

Generation = 0, Population = 6.
-----
--0--
---0-
---00
-0-0-

Generation = 2, Population = 7.
---0-
0--0-
---*-
-1--*
---*-

Generation = 4, Population = 12.
-0---
0-1-1
-1-.0
1-1**
-1-.0

Generation = 6, Population = 11.
---11
0-10.
--1.-
11...
--0**

Generation = 8, Population = 12.
-0-1.
0-1-*
0-**-
*....
11*..

Generation = 10, Population = 8.
0-11.
*-.0.
--..-
..**.
1-...

*** Life<Cell> 5x5 ***

Generation = 0, Population = 25.
00000
00000
00000
00000
00000

Generation = 3, Population = 12.
-*1*-
*---*
1---1
*---*
-*1*-

Generation = 6, Population = 12.
-*-*-
*-0-*
-0-0-
*-0-*
-*-*-

*** Life<Cell> 7x8 ***

Generation = 0, Population = 7.
-----0--
-----0--
0-------
---0----
--0--0--
--0-----
--------

Generation = 3, Population = 22.
-00--.-1
---0-101
--0----0
-11-0--0
00---00-
-0-----0
00----0-

Generation = 6, Population = 26.
**110.-.
0---0*0.
0-.0*0--
1*---00*
-.1--1*-
--.*----
.0.11-0-

Generation = 9, Population = 23.
.*1-1**.
--.*..1.
-1.-.-00
-.1-11**
*.-11-.-
-*..----
.-***-1-

Generation = 12, Population = 25.
........
1-*...-.
-*.-.--0
1.-111*.
**-***.0
1*.*0-*1
.-*..110

Generation = 15, Population = 19.
........
1-....1.
1*.-.-*1
.***..*.
.**..**1
-...1-..
.-**..*-

*** Life<Cell> 5x5 ***

Generation = 0, Population = 6.
00--0
-----
----0
--0--
--0--

Generation = 2, Population = 10.
-*-10
--0--
00---
0---1
0-*--

Generation = 4, Population = 11.
*.1*-
-----
-*--1
0-*-1
-0*-1

*** Life<Cell> 3x3 ***

Generation = 0, Population = 3.
0--
-0-
--0

Generation = 3, Population = 0.
---
---
---

Generation = 6, Population = 0.
---
---
---

Generation = 9, Population = 0.
---
---
---

*** Life<Cell> 5x1 ***

Generation = 0, Population = 5.
0
0
0
0
0

Generation = 1, Population = 2.
1
-
-
-
1

Generation = 2, Population = 2.
-
0
-
0
-

Generation = 3, Population = 2.
1
-
-
-
1

*** Life<Cell> 2x4 ***

Generation = 0, Population = 2.
--0-
---0

Generation = 1, Population = 1.
-0--
----

Generation = 2, Population = 3.
0-0-
-0--

Generation = 3, Population = 2.
-0-0
----

Generation = 4, Population = 3.
0---
-0-0

*** Life<Cell> 2x2 ***

Generation = 0, Population = 3.
00
0-

Generation = 1, Population = 2.
-1
1-

Generation = 2, Population = 0.
--
--

Generation = 3, Population = 0.
--
--

Generation = 4, Population = 0.
--
--

Generation = 5, Population = 0.
--
--

*** Life<Cell> 1x1 ***

Generation = 0, Population = 1.
0

Generation = 2, Population = 0.
-

Generation = 4, Population = 0.
-

Generation = 6, Population = 0.
-

Generation = 8, Population = 0.
-

Generation = 10, Population = 0.
-
