*** Life<FredkinCell> 3x3 ***

Generation = 0, Population = 3.
---
000
---

Generation = 1, Population = 8.
000
1-1
000

*** Life<FredkinCell> 10x10 ***

Generation = 0, Population = 15.
----------
00--------
0-0-------
0--0------
0---0-----
00---0----
------0---
-------0--
--------0-
---------0

Generation = 1, Population = 9.
00--------
-1--------
-0--------
-0--------
----------
-10-------
00--------
----------
----------
----------

Generation = 2, Population = 14.
1-0-------
--0-------
0-0-------
010-------
--0-------
--10------
1---------
00--------
----------
----------

Generation = 3, Population = 21.
--10------
-1-0------
10-0------
--10------
0---------
01-10-----
2-00------
-10-------
00--------
----------

Generation = 4, Population = 23.
--2-0-----
-20-0-----
2-0-0-----
--2-0-----
1-0-0-----
121-10----
3---------
0---------
1---------
00--------

Generation = 5, Population = 21.
--3-10----
-31--0----
-0---0----
-1---0----
20--------
2----10---
--0-00----
-1--------
----------
-10-------

Generation = 6, Population = 29.
--4-2-0---
0--0--0---
2---0-0---
--2-010---
--0---0---
3-1---10--
3---1-----
0---00----
--0-------
0210------

Generation = 7, Population = 51.
10-0--10--
13--00-0--
300-10-0--
013---10--
20-00-----
4-2111-10-
-0002-00--
1100-10---
--1-00----
1-210-----

Generation = 8, Population = 23.
------2-0-
24----0-0-
4-----0-0-
1-----2-0-
3-----0-0-
5----21-10
3---------
22--------
----------
----------

Generation = 9, Population = 28.
10---03-10
-51--0---0
-----0---0
-1---1---0
-0--------
-2--13---1
-----00-00
-30-------
10--------
----------

Generation = 10, Population = 40.
2---2-4-2-
--200-----
--0-1-0-0-
123-022-01
3-0-0-----
53212----2
--0---1-1-
--10-10-00
2---------
12--------

*** Life<FredkinCell> 5x5 ***

Generation = 0, Population = 9.
0-0-0
-00-0
--0--
---0-
----0

Generation = 5, Population = 3.
-0---
-----
-0---
-----
-0---

Generation = 10, Population = 6.
1-2--
-----
0-2--
-----
0-1--

Generation = 15, Population = 3.
---0-
-----
---0-
-----
---0-

Generation = 20, Population = 6.
--2-2
-----
--2-3
-----
--1-1

*** Life<FredkinCell> 4x4 ***

Generation = 0, Population = 16.
0000
0000
0000
0000

Generation = 1, Population = 8.
-11-
1--1
1--1
-11-

Generation = 2, Population = 8.
-22-
2--2
2--2
-22-

Generation = 3, Population = 8.
-33-
3--3
3--3
-33-

Generation = 4, Population = 8.
-44-
4--4
4--4
-44-

Generation = 5, Population = 8.
-55-
5--5
5--5
-55-

Generation = 6, Population = 8.
-66-
6--6
6--6
-66-

Generation = 7, Population = 8.
-77-
7--7
7--7
-77-

Generation = 8, Population = 8.
-88-
8--8
8--8
-88-

Generation = 9, Population = 8.
-99-
9--9
9--9
-99-

*** Life<FredkinCell> 1x1 ***

Generation = 0, Population = 1.
0

Generation = 1, Population = 0.
-

*** Life<FredkinCell> 1x1 ***

Generation = 0, Population = 1.
0

Generation = 1, Population = 0.
-

*** Life<FredkinCell> 5x5 ***

Generation = 0, Population = 5.
-----
-----
00000
-----
-----

Generation = 1, Population = 12.
-----
00000
1---1
00000
-----

Generation = 2, Population = 12.
00000
-----
-0-0-
-----
00000

Generation = 3, Population = 12.
1---1
0-0-0
1---1
0-0-0
1---1

Generation = 4, Population = 12.
20002
-----
-0-0-
-----
20002

Generation = 5, Population = 12.
3---3
0-0-0
1---1
0-0-0
3---3

Generation = 6, Population = 12.
40004
-----
-0-0-
-----
40004

Generation = 7, Population = 12.
5---5
0-0-0
1---1
0-0-0
5---5

*** Life<FredkinCell> 5x5 ***

Generation = 0, Population = 9.
0---0
-0-0-
--0--
-0-0-
0---0

Generation = 1, Population = 4.
-----
--0--
-0-0-
--0--
-----

Generation = 2, Population = 4.
--0--
-----
0---0
-----
--0--

Generation = 3, Population = 12.
-0-0-
0-0-0
-0-0-
0-0-0
-0-0-

Generation = 4, Population = 4.
--0--
-----
0---0
-----
--0--

Generation = 5, Population = 12.
-0-0-
0-0-0
-0-0-
0-0-0
-0-0-

Generation = 6, Population = 4.
--0--
-----
0---0
-----
--0--

Generation = 7, Population = 12.
-0-0-
0-0-0
-0-0-
0-0-0
-0-0-

Generation = 8, Population = 4.
--0--
-----
0---0
-----
--0--

Generation = 9, Population = 12.
-0-0-
0-0-0
-0-0-
0-0-0
-0-0-

*** Life<FredkinCell> 4x4 ***

Generation = 0, Population = 7.
-0-0
0---
0-0-
0--0

Generation = 1, Population = 5.
----
1-00
----
10--

Generation = 2, Population = 11.
0-00
--11
-000
210-

Generation = 3, Population = 5.
----
1-22
----
32--

Generation = 4, Population = 11.
0-00
--33
-000
430-

Generation = 5, Population = 5.
----
1-44
----
54--

Generation = 6, Population = 11.
0-00
--55
-000
650-

Generation = 7, Population = 5.
----
1-66
----
76--

Generation = 8, Population = 11.
0-00
--77
-000
870-

Generation = 9, Population = 5.
----
1-88
----
98--

Generation = 10, Population = 11.
0-00
--99
-000
+90-

Generation = 11, Population = 5.
----
1-++
----
++--

Generation = 12, Population = 11.
0-00
--++
-000
++0-

Generation = 13, Population = 5.
----
1-++
----
++--

Generation = 14, Population = 11.
0-00
--++
-000
++0-

Generation = 15, Population = 5.
----
1-++
----
++--

Generation = 16, Population = 11.
0-00
--++
-000
++0-

Generation = 17, Population = 5.
----
1-++
----
++--

*** Life<FredkinCell> 10x10 ***

Generation = 0, Population = 24.
----------
-00000000-
-00000000-
----------
-00000000-
----------
----------
----------
----------
----------

Generation = 2, Population = 42.
-11111111-
102----201
1--2222--1
-00000000-
1--0000--1
----------
-00000000-
----------
----------
----------

Generation = 4, Population = 38.
----------
-2------2-
--224422--
----------
--002200--
-11000011-
-20000002-
----------
-00000000-
----------

Generation = 6, Population = 50.
--211112--
---2--2---
20--44--02
--000000--
1-02--20-1
111----111
1-2----2-1
-00000000-
1--0000--1
----------

Generation = 8, Population = 34.
----------
-324--423-
----44----
----------
----33----
-13000031-
----------
----------
-10022001-
-00111100-

Generation = 10, Population = 46.
----11----
25-6--6-52
--426624--
----11----
--223322--
333----333
-332--233-
----------
212----212
1--3333--1

Generation = 12, Population = 40.
----------
4738--8374
41------14
----------
3-225522-3
--51--15--
----22----
-11211211-
-1--44--1-
-0------0-

Generation = 14, Population = 46.
12------21
-93+--+39-
----77----
02------20
3--4554--3
5-512215-5
24------42
1--2--2--1
--3-44-3--
--2-44-2--

Generation = 16, Population = 42.
-23322332-
---+--+---
-16-99-61-
-41222214-
---4--4---
----------
----------
-11211211-
-25244252-
----------

Generation = 18, Population = 52.
3435--5343
--4+--+4--
51------15
1434--4341
--2----2--
----------
-65-33-56-
313----313
327----723
-24555542-

Generation = 20, Population = 36.
-4------4-
--4+--+4--
-17----71-
-6------6-
--4----4--
---2--2---
-65-55-56-
-1------1-
-2-3--3-2-
-26555562-
