*** Life<ConwayCell> 11x10 ***

Generation = 0, Population = 13.
........*.
.*......*.
..*.....*.
..........
.*........
.**....*..
.........*
.........*
.*........
..........
.....*....

Generation = 1, Population = 8.
..........
.......***
..........
..........
.**.......
.**.......
........*.
..........
..........
..........
..........

Generation = 2, Population = 7.
........*.
........*.
........*.
..........
.**.......
.**.......
..........
..........
..........
..........
..........

Generation = 3, Population = 7.
..........
.......***
..........
..........
.**.......
.**.......
..........
..........
..........
..........
..........

Generation = 4, Population = 7.
........*.
........*.
........*.
..........
.**.......
.**.......
..........
..........
..........
..........
..........

Generation = 5, Population = 7.
..........
.......***
..........
..........
.**.......
.**.......
..........
..........
..........
..........
..........

Generation = 6, Population = 7.
........*.
........*.
........*.
..........
.**.......
.**.......
..........
..........
..........
..........
..........

Generation = 7, Population = 7.
..........
.......***
..........
..........
.**.......
.**.......
..........
..........
..........
..........
..........

Generation = 8, Population = 7.
........*.
........*.
........*.
..........
.**.......
.**.......
..........
..........
..........
..........
..........

Generation = 9, Population = 7.
..........
.......***
..........
..........
.**.......
.**.......
..........
..........
..........
..........
..........

Generation = 10, Population = 7.
........*.
........*.
........*.
..........
.**.......
.**.......
..........
..........
..........
..........
..........

Generation = 11, Population = 7.
..........
.......***
..........
..........
.**.......
.**.......
..........
..........
..........
..........
..........

*** Life<ConwayCell> 10x4 ***

Generation = 0, Population = 11.
....
*..*
....
..*.
***.
..**
..*.
....
.**.
....

Generation = 2, Population = 7.
....
....
....
....
....
..**
.*.*
.***
....
....

Generation = 4, Population = 5.
....
....
....
....
....
..*.
.*.*
.*..
..*.
....

Generation = 6, Population = 2.
....
....
....
....
....
....
.**.
....
....
....

Generation = 8, Population = 0.
....
....
....
....
....
....
....
....
....
....

*** Life<ConwayCell> 4x9 ***

Generation = 0, Population = 12.
..**...**
.*..**.*.
..*...*..
..*.*....

Generation = 1, Population = 16.
..***.***
.*..**.**
.**.*.*..
...*.....

Generation = 2, Population = 14.
..***.*.*
.*......*
.**.*.**.
..**.....

Generation = 3, Population = 12.
..**...*.
.*..*.*.*
.*.....*.
.***.....

Generation = 4, Population = 13.
..**...*.
.*.*..*.*
**.*...*.
.**......

Generation = 5, Population = 15.
..**...*.
**.**.*.*
*..*...*.
***......

Generation = 6, Population = 16.
.****..*.
**..*.*.*
...**..*.
***......

Generation = 7, Population = 18.
******.*.
**....*.*
...***.*.
.***.....

Generation = 8, Population = 17.
*.******.
*.......*
*..*****.
..**.....

Generation = 9, Population = 20.
.*.*****.
*.*.....*
.*******.
..**.**..

Generation = 10, Population = 12.
.*******.
*.......*
.......*.
.*.....*.

Generation = 11, Population = 15.
.*******.
.*****..*
.......**
.........

Generation = 12, Population = 10.
.*....**.
.*......*
..***..**
.........

Generation = 13, Population = 10.
.......*.
.*.*..*.*
..**...**
...*.....

Generation = 14, Population = 10.
.......*.
...*..*.*
...**..**
..**.....

Generation = 15, Population = 11.
.......*.
...**.*.*
....*..**
..***....

*** Life<ConwayCell> 4x7 ***

Generation = 0, Population = 11.
*..*...
.**.***
*.....*
...*.*.

Generation = 2, Population = 7.
*.....*
*.....*
*.....*
..*....

Generation = 4, Population = 4.
.......
**.....
**.....
.......

Generation = 6, Population = 4.
.......
**.....
**.....
.......

*** Life<ConwayCell> 8x5 ***

Generation = 0, Population = 8.
...*.
...*.
.*...
*....
*....
*....
.....
.*..*

Generation = 1, Population = 5.
.....
..*..
.....
**...
**...
.....
.....
.....

Generation = 2, Population = 5.
.....
.....
.*...
**...
**...
.....
.....
.....

Generation = 3, Population = 5.
.....
.....
**...
..*..
**...
.....
.....
.....

Generation = 4, Population = 3.
.....
.....
.*...
..*..
.*...
.....
.....
.....

Generation = 5, Population = 2.
.....
.....
.....
.**..
.....
.....
.....
.....

Generation = 6, Population = 0.
.....
.....
.....
.....
.....
.....
.....
.....

*** Life<ConwayCell> 9x11 ***

Generation = 0, Population = 9.
..........*
.*.*..*....
...........
...........
.*..*......
.**........
...........
...........
*..........

Generation = 2, Population = 4.
...........
...........
...........
...........
.**........
.**........
...........
...........
...........

Generation = 4, Population = 4.
...........
...........
...........
...........
.**........
.**........
...........
...........
...........

*** Life<ConwayCell> 9x7 ***

Generation = 0, Population = 13.
...*...
.*.....
...*...
.*...*.
...*.*.
..**...
......*
..*.*..
.....*.

Generation = 1, Population = 9.
.......
..*....
..*....
..*....
...*...
..***..
..*....
.....*.
.......

Generation = 2, Population = 10.
.......
.......
.***...
..**...
....*..
..*.*..
..*.*..
.......
.......

Generation = 3, Population = 9.
.......
..*....
.*.*...
.*..*..
..*.*..
....**.
.......
.......
.......

Generation = 4, Population = 9.
.......
..*....
.*.*...
.*..*..
....*..
...***.
.......
.......
.......

Generation = 5, Population = 10.
.......
..*....
.*.*...
..***..
.......
...***.
....*..
.......
.......

Generation = 6, Population = 14.
.......
..*....
.*..*..
..***..
..*..*.
...***.
...***.
.......
.......

Generation = 7, Population = 13.
.......
.......
.*..*..
.**.**.
..*..*.
..*...*
...*.*.
....*..
.......

Generation = 8, Population = 22.
.......
.......
.*****.
.**.**.
..*.***
..*****
...***.
....*..
.......

Generation = 9, Population = 11.
.......
..***..
.*...*.
.......
.......
..*....
..*...*
...***.
.......

Generation = 10, Population = 14.
...*...
..***..
..***..
.......
.......
.......
..*.**.
...***.
....*..

Generation = 11, Population = 10.
..***..
.......
..*.*..
...*...
.......
.......
.....*.
.......
...***.

Generation = 12, Population = 7.
...*...
..*.*..
...*...
...*...
.......
.......
.......
.....*.
....*..

Generation = 13, Population = 6.
...*...
..*.*..
..***..
.......
.......
.......
.......
.......
.......

Generation = 14, Population = 6.
...*...
..*.*..
..*.*..
...*...
.......
.......
.......
.......
.......

Generation = 15, Population = 6.
...*...
..*.*..
..*.*..
...*...
.......
.......
.......
.......
.......

*** Life<ConwayCell> 4x9 ***

Generation = 0, Population = 14.
....***.*
*****....
...*....*
*....*.*.

Generation = 2, Population = 7.
.***.....
*...*....
.**......
.........

Generation = 4, Population = 3.
.**......
*........
.........
.........

Generation = 6, Population = 0.
.........
.........
.........
.........

*** Life<ConwayCell> 11x9 ***

Generation = 0, Population = 10.
.........
......*..
.........
.........
...*.....
.......*.
.*.*..*..
.........
.........
...*....*
...*..*..

Generation = 1, Population = 1.
.........
.........
.........
.........
.........
..*......
.........
.........
.........
.........
.........

Generation = 2, Population = 0.
.........
.........
.........
.........
.........
.........
.........
.........
.........
.........
.........

*** Life<ConwayCell> 12x10 ***

Generation = 0, Population = 12.
....*.....
.*....*...
...*......
.....*..*.
......**.*
..........
....*.....
..........
*.........
..........
..........
..*.......

Generation = 2, Population = 6.
..........
..........
.......*..
......*.*.
......*.*.
.......*..
..........
..........
..........
..........
..........
..........

Generation = 4, Population = 6.
..........
..........
.......*..
......*.*.
......*.*.
.......*..
..........
..........
..........
..........
..........
..........

Generation = 6, Population = 6.
..........
..........
.......*..
......*.*.
......*.*.
.......*..
..........
..........
..........
..........
..........
..........

Generation = 8, Population = 6.
..........
..........
.......*..
......*.*.
......*.*.
.......*..
..........
..........
..........
..........
..........
..........
