*** Life<Cell> 5x5 ***

Generation = 0, Population = 7.
-0-0-
-0-0-
-0-0-
---0-
-----

Generation = 1, Population = 14.
01-10
0---0
01--0
-0010
---0-

Generation = 2, Population = 6.
-*-*-
-0---
-----
---*-
-0-1-

Generation = 3, Population = 14.
0.-.0
0100-
-1-0-
-00.0
0--*0

Generation = 4, Population = 8.
1.0*-
-*---
---1-
--1.1
---*-

Generation = 5, Population = 7.
-*1.0
-*---
-1---
-0-.-
---*-

Generation = 6, Population = 14.
1**.-
0*--0
0-0--
011.-
-00.0

Generation = 7, Population = 12.
-.*.0
1.00-
--110
-**.1
---*-

Generation = 8, Population = 13.
1**.-
-.1-0
0-**-
0*..*
-0-*-

Generation = 9, Population = 12.
****0
-.-0-
11*.0
-...*
-1-.-

Generation = 10, Population = 16.
.***1
-.110
*-*.1
0.**.
0-0.0

*** Life<Cell> 10x10 ***

Generation = 0, Population = 11.
----0---00
----0----0
----0-----
----0-----
----------
----------
----0-----
----0-----
----0-----
----0-----

Generation = 1, Population = 26.
---010-01-
---0-0---1
---0-0---0
---010----
----0-----
----0-----
---010----
---0-0----
---0-0----
---010----

Generation = 2, Population = 28.
--0----1*-
--0-0-00-*
--0-0-0-01
--0-*-0--0
----------
----------
--0-*-0---
--0-0-0---
--0-0-0---
--0---0---

Generation = 3, Population = 40.
-0101---*-
-0--1----*
-0-----01*
-01-.-10-1
--0-0-0--0
--0-0-0---
-01-.-10--
-0-----0--
-0--1--0--
-0101010--

Generation = 4, Population = 34.
0----0-1.-
0---*0-00*
0---0----*
0--0.0--0-
----1---01
----1----0
0--0.0--0-
0---0---0-
0---*---0-
0---*---0-

Generation = 5, Population = 52.
10---1-*.0
-0-0*----*
-0--10-01*
101-.-1011
0---*--0--
0---*---01
101-.-101-
-0--1--0-0
-0-0*0-0-0
10-0.0-010

Generation = 6, Population = 42.
*-10---.*1
---1.0---*
-----10-*.
-1*0*-*-*-
--00.0-10-
--00.000-*
-1*0.0*1-0
----*---01
----.---0-
*--1.1----

Generation = 7, Population = 46.
.-*-11-.*-
0--*.1--0*
-00-----**
1*.1.-.0*1
--11.1----
--11.1110*
1*.-.-.-1-
-00-*-0---
0--0*0-01-
.01-.-1-1-

Generation = 8, Population = 49.
.0.0*-0.*-
--0*.*001.
0-10-1--..
*..**0.1.-
0--*.*----
0---.---1*
*..0*0.-*-
0-10*0----
-001*1-1-0
.1*-*--0*0

Generation = 9, Population = 42.
.-.-*11.*1
0--...1--.
1--11---*.
*....1.-.-
-01*.*0101
-0--.--1-*
*.*-.-.1*-
10--.10001
---*.--*11
.-.1*-1-.-

Generation = 10, Population = 46.
.-.0.--*.*
10-*..*0-*
-01**-00..
*....*.1.1
---.**-*--
-111.1---*
*.*0.0.*.0
-1-0.*----
000*.10.*-
.-.-*---*0

*** Life<Cell> 10x10 ***

Generation = 0, Population = 9.
----0-----
----0-----
----0-----
----------
---000----
----------
----0-----
----0-----
----0-----
----------

Generation = 1, Population = 25.
---010----
---0-0----
---010----
---0-0----
--01-10---
---0-0----
---010----
---0-0----
---010----
----0-----

Generation = 2, Population = 26.
--0---0---
--0---0---
--01-10---
----0-----
-01*-*10--
----0-----
--01-10---
--0---0---
--0-*-0---
----1-----

Generation = 3, Population = 44.
-010-010--
-0-----0--
-0-*1*-0--
-0-0-0-0--
01-*-*-10-
-0-0-0-0--
-0-*1*-0--
-0--0--0--
-01-.-10--
--00*00---

Generation = 4, Population = 31.
0--1-1--0-
0---0---0-
0--*-*--0-
----0-----
1*-*-*-*10
----0-----
0--***--0-
0---1---0-
0---.---0-
----*-----

Generation = 5, Population = 59.
101-1-1010
-0-0-0-0-0
100*-*0010
-0-0-0-0-0
*.-*-*-.-1
-0-010-0-0
100*.*0010
-0--*--0-0
10--.--010
0--0.0--0-

Generation = 6, Population = 51.
*1*1-1*1--
0--101----
*--*-*---1
010---010-
**1*0*1.1-
0101-1010-
*--...---1
0---*-----
--10*01-*-
1-0-.-0-1-

Generation = 7, Population = 49.
*-*-1-**1-
---*-*-0-0
*--*1*-0--
1*-000----
..-.-.*.-1
1*1-1-1---
*-0***00--
100-*-0-00
-0--*---.0
--1-*-1-*0

Generation = 8, Population = 39.
.-.1-1***-
---.-.0-0-
*-0.*.-111
-*--1--1-0
..1.-.*.1-
-.-1*1---0
.-1...-1-1
-1-0.0101-
-110*0--.-
----.---*-

Generation = 9, Population = 48.
.-.--**.*0
0-0*0.1---
.0-*.*--*-
-*00*0-*-1
..-.-.**-1
-.1***-1-1
.--...-*1*
1*-1.--1*-
1--1.--0*-
-010*0-0.0

Generation = 10, Population = 49.
.-.1-***.1
-01*1.*0-0
*1-...--*-
1*-1.-0*0*
.*-.-..*--
-.****1-0-
.01...0.**
-*-*.-1*.-
*1--.011.-
-1-1*1-1.-

*** Life<Cell> 30x10 ***

Generation = 0, Population = 27.
----0-----
----0-----
----0-----
----------
---000----
----------
----0-----
----0-----
----0-----
----------
----0-----
----0-----
----0-----
----------
---000----
----------
----0-----
----0-----
----0-----
----------
----0-----
----0-----
----0-----
----------
---000----
----------
----0-----
----0-----
----0-----
----------

Generation = 1, Population = 73.
---010----
---0-0----
---010----
---0-0----
--01-10---
---0-0----
---010----
---0-0----
---010----
----------
---010----
---0-0----
---010----
---0-0----
--01-10---
---0-0----
---010----
---0-0----
---010----
----------
---010----
---0-0----
---010----
---0-0----
--01-10---
---0-0----
---010----
---0-0----
---010----
----0-----

Generation = 2, Population = 74.
--0---0---
--0---0---
--01-10---
----0-----
-01*-*10--
----0-----
--01-10---
--0---0---
--0---0---
----------
--0---0---
--0---0---
--01-10---
----0-----
-01*-*10--
----0-----
--01-10---
--0---0---
--0---0---
----------
--0---0---
--0---0---
--01-10---
----0-----
-01*-*10--
----0-----
--01-10---
--0---0---
--0-*-0---
----1-----

Generation = 3, Population = 124.
-010-010--
-0-----0--
-0-*1*-0--
-0-0-0-0--
01-*-*-10-
-0-0-0-0--
-0-*1*-0--
-0-----0--
-010-010--
----------
-010-010--
-0-----0--
-0-*1*-0--
-0-0-0-0--
01-*-*-10-
-0-0-0-0--
-0-*1*-0--
-0-----0--
-010-010--
----------
-010-010--
-0-----0--
-0-*1*-0--
-0-0-0-0--
01-*-*-10-
-0-0-0-0--
-0-*1*-0--
-0--0--0--
-01-.-10--
--00*00---

Generation = 4, Population = 93.
0--1-1--0-
0---0---0-
0--*-*--0-
----0-----
1*-*-*-*10
----0-----
0--*-*--0-
0---0---0-
0--1-1--0-
----------
0--1-1--0-
0---0---0-
0--*-*--0-
----0-----
1*-*-*-*10
----0-----
0--*-*--0-
0---0---0-
0--1-1--0-
----------
0--1-1--0-
0---0---0-
0--*-*--0-
----0-----
1*-*-*-*10
----0-----
0--***--0-
0---1---0-
0---.---0-
----*-----

Generation = 5, Population = 175.
101-1-1010
-0-0-0-0-0
100*-*0010
-0-0-0-0-0
*.-*-*-.-1
-0-0-0-0-0
100*-*0010
-0-0-0-0-0
101-1-1010
----------
101-1-1010
-0-0-0-0-0
100*-*0010
-0-0-0-0-0
*.-*-*-.-1
-0-0-0-0-0
100*-*0010
-0-0-0-0-0
101-1-1010
----------
101-1-1010
-0-0-0-0-0
100*-*0010
-0-0-0-0-0
*.-*-*-.-1
-0-010-0-0
100*.*0010
-0--*--0-0
10--.--010
0--0.0--0-

Generation = 6, Population = 149.
*1*1-1*1--
0--101----
*--*-*---1
010---010-
**1*-*1.1-
010---010-
*--*-*---1
0--101----
*1*1-1*1--
----------
*1*1-1*1--
0--101----
*--*-*---1
010---010-
**1*-*1.1-
010---010-
*--*-*---1
0--101----
*1*1-1*1--
----------
*1*1-1*1--
0--101----
*--*-*---1
010---010-
**1*0*1.1-
0101-1010-
*--...---1
0---*-----
--10*01-*-
1-0-.-0-1-

Generation = 7, Population = 133.
*-*-1-**1-
---*-*-0-0
*--*1*-0--
1*-0-0----
..-*-**.-1
1*-0-0----
*--*1*-0--
---*-*-0-0
*-*-1-**1-
----------
*-*-1-**1-
---*-*-0-0
*--*1*-0--
1*-0-0----
..-*-**.-1
1*-0-0----
*--*1*-0--
---*-*-0-0
*-*-1-**1-
----------
*-*-1-**1-
---*-*-0-0
*--*1*-0--
1*-000----
..-.-.*.-1
1*1-1-1---
*-0***00--
100-*-0-00
-0--*---.0
--1-*-1-*0

Generation = 8, Population = 121.
.-.1-1***-
---.-.0-0-
*-0*-*-111
-*--0--1-0
..1*-**.1-
-*--0--1-0
*-0*-*-111
---.-.0-0-
.-.1-1***-
----------
.-.1-1***-
---.-.0-0-
*-0*-*-111
-*--0--1-0
..1*-**.1-
-*--0--1-0
*-0*-*-111
---.-.0-0-
.-.1-1***-
----------
.-.1-1***-
---.-.0-0-
*-0.*.-111
-*--1--1-0
..1.-.*.1-
-.-1*1---0
.-1...-1-1
-1-0.0101-
-110*0--.-
----.---*-

Generation = 9, Population = 144.
.-.--**.*0
0-0*-.1---
.01*1*0-*-
-*00-0-*-1
.***-**.-1
-*00-0-*-1
.01*1*0-*-
0-0*-.1---
.-.--**.*0
----------
.-.--**.*0
0-0*-.1---
.01*1*0-*-
-*00-0-*-1
.***-**.-1
-*00-0-*-1
.01*1*0-*-
0-0*-.1---
.-.--**.*0
----------
.-.--**.*0
0-0*0.1---
.0-*.*--*-
-*00*0-*-1
..-.-.**-1
-.1***-1-1
.--...-*1*
1*-1.--1*-
1--1.--0*-
-010*0-0.0

Generation = 10, Population = 129.
.-.11***.1
-0-.-.-0-0
*--.-.-1*-
1.-10--*0*
*...-*.*1-
1.-10--*0*
*--.-.-1*-
-0-.-.-0-0
.-.11***.1
----------
.-.11***.1
-0-.-.-0-0
*--.-.-1*-
1.-10--*0*
*...-*.*1-
1.-10--*0*
*--.-.-1*-
-0-.-.-0-0
.-.11***.1
----------
.-.1-***.1
-01*1.*0-0
*1-...--*-
1*-1.-0*0*
.*-.-..*--
-.****1-0-
.01...0.**
-*-*.-1*.-
*1--.011.-
-1-1*1-1.-

*** Life<Cell> 10x30 ***

Generation = 0, Population = 27.
----0--------0--------0-------
----0--------0--------0-------
----0--------0--------0-------
------------------------------
---000------000------000------
------------------------------
----0--------0--------0-------
----0--------0--------0-------
----0--------0--------0-------
------------------------------

Generation = 1, Population = 75.
---010------010------010------
---0-0------0-0------0-0------
---010------010------010------
---0-0------0-0------0-0------
--01-10----01-10----01-10-----
---0-0------0-0------0-0------
---010------010------010------
---0-0------0-0------0-0------
---010------010------010------
----0--------0--------0-------

Generation = 2, Population = 78.
--0---0----0---0----0---0-----
--0---0----0---0----0---0-----
--01-10----01-10----01-10-----
----0--------0--------0-------
-01*-*10--01*-*10--01*-*10----
----0--------0--------0-------
--01-10----01-10----01-10-----
--0---0----0---0----0---0-----
--0-*-0----0-*-0----0-*-0-----
----1--------1--------1-------

Generation = 3, Population = 132.
-010-010--010-010--010-010----
-0-----0--0-----0--0-----0----
-0-*1*-0--0-*1*-0--0-*1*-0----
-0-0-0-0--0-0-0-0--0-0-0-0----
01-*-*-1001-*-*-1001-*-*-10---
-0-0-0-0--0-0-0-0--0-0-0-0----
-0-*1*-0--0-*1*-0--0-*1*-0----
-0--0--0--0--0--0--0--0--0----
-01-.-10--01-.-10--01-.-10----
--00*00----00*00----00*00-----

Generation = 4, Population = 87.
0--1-1--00--1-1--00--1-1--0---
0---0---00---0---00---0---0---
0--*-*--00--*-*--00--*-*--0---
----0--------0--------0-------
1*-*-*-*--*-*-*-*--*-*-*-*10--
----0--------0--------0-------
0--***--00--***--00--***--0---
0---1---00---1---00---1---0---
0---.---00---.---00---.---0---
----*--------*--------*-------

Generation = 5, Population = 162.
101-1-10--01-1-10--01-1-1010--
-0-0-0-0110-0-0-0110-0-0-0-0--
100*-*00--00*-*00--00*-*0010--
-0-0-0-0000-0-0-0000-0-0-0-0--
*.-*-*-.00.-*-*-.00.-*-*-.-10-
-0-010-0000-010-0000-010-0-0--
100*.*00--00*.*00--00*.*0010--
-0--*--0110--*--0110--*--0-0--
10--.--0--0--.--0--0--.--010--
0--0.0--00--0.0--00--0.0--0---

Generation = 6, Population = 164.
*1*1-1*----*1-1*----*1-1*1--0-
0--101-1--1-101-1--1-101----0-
*--*-*-1001-*-*-1001-*-*---10-
010---0-11-0---0-11-0---010---
**1*0*1.11.1*0*1.11.1*0*1.1*10
0101-10-11-01-10-11-01-1010---
*--...-1001-...-1001-...---10-
0---*--1--1--*--1--1--*-----0-
--10*01100110*01100110*01-*-0-
1-0-.-0-11-0-.-0-11-0-.-0-1---

Generation = 7, Population = 171.
*-*-1-*----*-1-*----*-1-**1010
---*-*0*--*0*-*0*--*0*-*-0---0
*--*1*0-11-0*1*0-11-0*1*-0-*-0
1*-00010**0100010**01000---0-0
..-.-.*.**.*.-.*.**.*.-.*.*.-1
1*1-1--0**0--1--0**0--1-1--0-0
*-0***--11--***--11--***00-*-0
100-*---11---*---11---*-0-0--0
-0--*-**11**-*-**11**-*---.-10
--1-*-10--01-*-10--01-*-1-*00-

Generation = 8, Population = 94.
.-.1-1*----*1-1*----*1-1**----
---.-.-.--.-.-.-.--.-.-.0-----
*-0.*.1----1.*.1----1.*.-1-.--
-*--11--..--111--..--11--1-1--
..1.-........-........-.****1-
-.-1*--1..1--*--1..1--*1---1--
.-1..*0-**-0*.*0-**-0*..-11*--
-1-0.-0-**-0-.-0-**-0-.010----
-110*-*.**.*-*-*.**.*-*0--*---
----.--------.--------.---.---

Generation = 9, Population = 100.
.-.--*.0--0.*-*.0--0.*-***1---
0-0*0.-.--.-.0.-.--.-.0.10----
.0-**.-1--1-.*.-1--1-.**-*1.--
-*00-*--..--***--..--*-0--0*--
..-.-*......*-*......*-.**..*1
-.1**---**---*---**---**--0---
.--..*-1..1-***-1..1-*..---*0-
1*-1.---..---*---..---.---00--
1--1*-..**..-.-..**..-*---.0--
-010.-1-11-1-.-1-11-1-.0--.---

Generation = 10, Population = 130.
.-.1-..-00-..1..-00-..1*..*0--
-01.-*-.--.-*1*-.--.-*1.-10---
*1-..*1-11-1...1-11-1*..0.-*--
1*--1*10..01*.*10..01*11-1-*-0
.*-.-*......*-*......*-.**..**
-.***1--**--1.1--**--1**-----0
.01...--**--*.*--**--.*.--1.10
-*-*.0-1**1--*--1**1-0.--011--
*1-**0.****.-.-.****.0.---*11-
-1--*0------0.0------0.-1-.0--

*** Life<Cell> 30x10 ***

Generation = 0, Population = 27.
----0-----
----0-----
----0-----
----------
---000----
----------
----0-----
----0-----
----0-----
----0-----
----0-----
----0-----
----------
---000----
----------
----0-----
----0-----
----0-----
----0-----
----0-----
----0-----
----------
---000----
----------
----0-----
----0-----
----0-----
----------
----------
----------

Generation = 1, Population = 69.
---010----
---0-0----
---010----
---0-0----
--01-10---
---0-0----
---010----
---0-0----
---0-0----
---0-0----
---0-0----
---010----
---0-0----
--01-10---
---0-0----
---010----
---0-0----
---0-0----
---0-0----
---0-0----
---010----
---0-0----
--01-10---
---0-0----
---010----
---0-0----
---010----
----0-----
----------
----------

Generation = 2, Population = 79.
--0---0---
--0---0---
--01-10---
----0-----
-01*-*10--
----0-----
--01-10---
--0-0-0---
--0---0---
--0---0---
--0-0-0---
--01-10---
----0-----
-01*-*10--
----0-----
--01-10---
--0-0-0---
--0---0---
--0---0---
--0-0-0---
--01-10---
----0-----
-01*-*10--
----0-----
--01-10---
--0---0---
--0-*-0---
----1-----
----0-----
----------

Generation = 3, Population = 127.
-010-010--
-0-----0--
-0-*1*-0--
-0-0-0-0--
01-*-*-10-
-0-0-0-0--
-0-*-*-0--
-0-0-0-0--
-0-000-0--
-0-000-0--
-0-0-0-0--
-0-*-*-0--
-0-0-0-0--
01-*-*-10-
-0-0-0-0--
-0-*-*-0--
-0-0-0-0--
-0-000-0--
-0-000-0--
-0-0-0-0--
-0-*-*-0--
-0-0-0-0--
01-*-*-10-
-0-0-0-0--
-0-*1*-0--
-0--0--0--
-01-.-10--
--00-00---
---010----
----0-----

Generation = 4, Population = 96.
0--1-1--0-
0---0---0-
0--*-*--0-
----0-----
1*-*-*-*10
----------
0--*-*--0-
0---0---0-
0--111--0-
0--111--0-
0---0---0-
0--*-*--0-
----------
1*-*-*-*10
----------
0--*-*--0-
0---0---0-
0--111--0-
0--111--0-
0---0---0-
0--*-*--0-
----------
1*-*-*-*10
----0-----
0--***--0-
0---1---0-
0---*---0-
----1-----
----*-----
----1-----

Generation = 5, Population = 159.
101-1-1010
-0-0-0-0-0
100*-*0010
-0-0-0-0-0
*.-.0.-.-1
-0-----0-0
100.1.0010
-0-010-0-0
-00---00-0
-00---00-0
-0-010-0-0
100.1.0010
-0-----0-0
*.-.-.-.-1
-0-----0-0
100.1.0010
-0-010-0-0
-00---00-0
-00---00-0
-0-010-0-0
100.1.0010
-0-----0-0
*.-.0.-.-1
-0-010-0-0
100*.*0010
-0-----0-0
10-0*0-010
0--0-0--0-
---0*0----
---0*0----

Generation = 6, Population = 132.
*1*1-1*1--
0--101----
*--*-*---1
010101010-
**-.-.-.1-
01-----10-
*-1.*.1--1
---1*1--0-
01--1--1--
01--1--1--
---1*1--0-
*-1.*.1--1
01--0--10-
**-.-.-.1-
01--0--10-
*-1.*.1--1
---1*1--0-
01--1--1--
01--1--1--
---1*1--0-
*-1.*.1--1
01-----10-
**-*1*-.1-
010-*-010-
*--*.*---1
0---1-----
----.---*-
1-0---0-1-
0-01.10-0-
--0-.-0---

Generation = 7, Population = 116.
*-*-1-**1-
---*-*-0-0
*--.-.-0--
1*-*-*----
..-*0*1.-1
1---0--*--
*0-.*.--1-
-0-*.*----
--0---0*--
--0---0*--
-0-*.*----
*0-...--1-
1--010-*--
..1.-.-.-1
1--010-*--
*0-...--1-
-0-*.*----
--0---0*--
--0---0*--
-0-*.*----
*0-.*.--1-
1--0-0-*--
..1***-.-1
1*1-.-1---
*--*.*-0--
10------00
--1-.-10.0
*-1---1--0
1-1*.*1-10
001-.-100-

Generation = 8, Population = 125.
.-.1-1***-
---*0*0-0-
*--.-.0111
-*-*0*-1-0
**1*1.*.1-
*------*-0
*-1***---1
-10***-00-
--1----*0-
--1----*0-
-10...-00-
*-1*.*---1
*--1-1-.-0
.*-.-.-.1-
*--1-1-.-0
*-1*.*---1
-10...-00-
--1----*0-
--1----*0-
-10***-00-
*-1*.*---1
*--1-1-.-0
*.-..*-.1-
-.-0.0---0
.0-...0--1
-1-0-0001-
--*0.0-1.-
.---------
-0**.**0--
----.-----

Generation = 9, Population = 131.
.-.*1-..*0
0-0*-.1---
.--.-.-**-
1.0.1.-*-1
*.-.-.*.-1
*----0-*01
*0-..*1--*
-*-..*----
----110.10
---1--0.10
-*1...0---
*0-*..10-*
*--*-*0.-1
**1.-.-.-1
*--*-*0.-1
*0-*..10-*
-*1...0---
---1--0.10
----110.10
-*-..*----
*0-..*10-*
*1-*--0.-1
..-..*1.-1
1.1-*1---1
.10...1--*
1*01--11*-
--*-.11**-
.0----1---
11*...*11-
-010.010--

Generation = 10, Population = 130.
.-***1...1
--1*-.---0
.--.1.-**-
**-.-.-*0*
*.1.1**.--
*---01-*-*
*-1.***--*
-*0...0-0-
-1--**-.--
-1-----.--
-***.*--0-
*-1**.*1-.
.1-*-*-*0-
*.**-.-.1-
.1-*-*-*0-
*-1**.*1-.
-***.*--0-
-1-----.--
-1--**-.--
-*0...000-
.11.***1-.
*--.01-.0-
*.1*..-.1-
-.*-*-1-0-
.-1.*.*--*
*.-*1-**.-
10.-.*-.*0
*11----0--
*-.*...**0
--*1.1*---

*** Life<Cell> 10x10 ***

Generation = 0, Population = 7.
----------
----------
----------
---0-0----
--0-0-0---
---0-0----
----------
----------
----------
----------

Generation = 1, Population = 8.
----------
----------
---0-0----
----0-----
-0-----0--
----0-----
---0-0----
----------
----------
----------

Generation = 2, Population = 18.
----------
---0-0----
--0-0-0---
-0-----0--
0-0---0-0-
-0-----0--
--0-0-0---
---0-0----
----------
----------

Generation = 3, Population = 19.
---0-0----
----0-----
---0-0----
--0-0-0---
---0-0---0
--0-0-0---
---0-0----
----0-----
---0-0----
----------

Generation = 4, Population = 21.
--0-0-0---
---0-0----
----------
-0-----0-0
--0---0-0-
-0-----0-0
----------
---0-0----
--0-0-0---
---0-0----

Generation = 5, Population = 27.
-0-0-0-0--
----0-----
-0-0-0-0-0
0-------0-
-0-0-0---0
0-------0-
-0-0-0-0-0
----0-----
-0-----0--
----0-----

Generation = 6, Population = 26.
0---0---0-
---0-0---0
----0---0-
-0-------0
0-----0-0-
-0-------0
----0---0-
---------0
0-0---0-0-
-0-0-0-0--

Generation = 7, Population = 34.
-0-----0--
0-0---0-0-
-0-----0-0
--0-0-0-0-
-0---0---0
--0-0-0-0-
-0-0-0-0-0
0-0-0-0-0-
-0-----0--
--0---0---

Generation = 8, Population = 25.
----------
---0-0----
--0-0-0---
-0---0-0-0
0-0-0-0-0-
-0-0---0-0
----------
---0-0----
--0-0-0---
---0-0----

Generation = 9, Population = 21.
---0-0----
----0-----
---0-----0
--0-0---0-
---0-0---0
--0-----0-
-0---0-0-0
----0-----
-0-----0--
----0-----

Generation = 10, Population = 26.
--0-0-0---
---0-----0
----0-----
-0-----0-0
--0-0-0-0-
---------0
0-------0-
---0-----0
0-0---0-0-
-0-0-0-0--

*** Life<Cell> 10x10 ***

Generation = 0, Population = 20.
-0------0-
0-0----0-0
0-0----0-0
----------
----------
----------
----------
0-0----0-0
0-0----0-0
-0------0-

Generation = 1, Population = 36.
----------
1010--0101
1-10--01-1
0-0----0-0
----------
----------
0-0----0-0
1-10--01-1
1010--0101
----------

Generation = 2, Population = 52.
0000--0000
--*-00-*--
-0*-00-*0-
1-1----1-1
0-0----0-0
0-0----0-0
1-1----1-1
-0*-00-*0-
--*-00-*--
0000--0000

Generation = 3, Population = 52.
1-11--11-1
10.0--0.01
-1*----*1-
*0-0000-0*
---0--0---
---0--0---
*0-0000-0*
-1*----*1-
10.0--0.01
1-11--11-1

Generation = 4, Population = 60.
*0*-00-*0*
--.1001.--
1*.0000.*1
*-1----1-*
000----000
000----000
*-1----1-*
1*.0000.*1
--.1001.--
*0*-00-*0*

*** Life<Cell> 5x5 ***

Generation = 0, Population = 11.
0---0
0---0
-000-
0---0
0---0

Generation = 1, Population = 18.
10-01
1-0-1
01-10
1-0-1
10-01

Generation = 2, Population = 10.
-101-
-----
1*-*1
-----
-101-

Generation = 3, Population = 16.
1*-*1
1-0-1
*.-.*
1-0-1
1*-*1

Generation = 4, Population = 12.
-*0*-
-0-0-
*.-.*
-0-0-
-*0*-

Generation = 5, Population = 18.
1*-*1
-101-
**-**
-101-
1*-*1

*** Life<Cell> 4x4 ***

Generation = 0, Population = 8.
0--0
-00-
-00-
0--0

Generation = 1, Population = 0.
----
----
----
----

Generation = 2, Population = 0.
----
----
----
----

Generation = 3, Population = 0.
----
----
----
----

Generation = 4, Population = 0.
----
----
----
----

Generation = 5, Population = 0.
----
----
----
----
