*** Life<ConwayCell> 18x17 ***

Generation = 0, Population = 16.
.................
.................
.....*...........
.................
...............*.
...*...*.........
..*........*.....
.................
.....*...........
......*........**
.................
.*..........*....
.....*...........
.................
.................
..........*.....*
..........*......
.................


*** Life<ConwayCell> 6x2 ***

Generation = 0, Population = 5.
..
.*
.*
.*
.*
.*

Generation = 89, Population = 0.
..
..
..
..
..
..

Generation = 178, Population = 0.
..
..
..
..
..
..

*** Life<ConwayCell> 20x9 ***

Generation = 0, Population = 10.
.........
.........
.........
.........
.*.......
.........
.........
.....*...
.........
.........
.........
.........
..***....
........*
..**.....
.....*...
.........
.........
....*....
.........

Generation = 123, Population = 0.
.........
.........
.........
.........
.........
.........
.........
.........
.........
.........
.........
.........
.........
.........
.........
.........
.........
.........
.........
.........

*** Life<ConwayCell> 2x6 ***

Generation = 0, Population = 4.
......
..****


*** Life<ConwayCell> 14x6 ***

Generation = 0, Population = 17.
......
....**
...*..
...*..
......
......
...**.
......
..*...
.*..*.
..*.*.
..**.*
.....*
..*.*.

Generation = 86, Population = 0.
......
......
......
......
......
......
......
......
......
......
......
......
......
......

Generation = 172, Population = 0.
......
......
......
......
......
......
......
......
......
......
......
......
......
......

*** Life<ConwayCell> 6x20 ***

Generation = 0, Population = 6.
....................
..*......**.........
....................
.....*.......*......
.................*..
....................


*** Life<ConwayCell> 9x2 ***

Generation = 0, Population = 7.
..
.*
..
.*
.*
.*
.*
.*
.*


*** Life<ConwayCell> 5x8 ***

Generation = 0, Population = 12.
........
.*.*..*.
....*...
..*..**.
.**..***

Generation = 62, Population = 0.
........
........
........
........
........

Generation = 124, Population = 0.
........
........
........
........
........

*** Life<ConwayCell> 19x19 ***

Generation = 0, Population = 12.
...................
..........*........
...................
....*..*...........
.*..........*.....*
...................
...................
...................
...................
.........*.........
...................
...................
...................
.......*.......*...
...*...............
........*..........
...................
................*..
...................

Generation = 81, Population = 0.
...................
...................
...................
...................
...................
...................
...................
...................
...................
...................
...................
...................
...................
...................
...................
...................
...................
...................
...................

Generation = 162, Population = 0.
...................
...................
...................
...................
...................
...................
...................
...................
...................
...................
...................
...................
...................
...................
...................
...................
...................
...................
...................

*** Life<ConwayCell> 18x19 ***

Generation = 0, Population = 6.
...................
...................
.....*.............
....*..............
.......*...........
...................
.................*.
...................
...................
.......*...........
...................
...................
...................
...................
...................
....*..............
...................
...................

Generation = 89, Population = 0.
...................
...................
...................
...................
...................
...................
...................
...................
...................
...................
...................
...................
...................
...................
...................
...................
...................
...................

Generation = 178, Population = 0.
...................
...................
...................
...................
...................
...................
...................
...................
...................
...................
...................
...................
...................
...................
...................
...................
...................
...................
